0,40,23.803,23.803
0,40,23.803,23.314
0,40,23.314,24.291
0,40,23.314,24.78
0,40,23.314,24.291
0,40,23.314,24.291
0,40,23.314,24.291
0,40,23.314,23.314
0,40,23.314,23.803
0,40,23.314,23.803
0,0,23.314,23.803
0,0,23.314,23.803
0,0,23.314,23.803
0,0,23.314,24.291
0,40,23.314,24.291
0,40,23.314,25.269
0,40,23.314,25.269
0,40,23.803,24.291
0,0,23.314,24.291
0,0,23.314,24.78
0,0,23.803,24.78
0,0,23.314,24.291
0,40,23.314,25.758
0,40,23.314,24.78
0,40,23.803,24.78
0,40,23.803,26.246
0,40,23.803,26.735
0,40,23.314,25.269
0,40,23.803,26.246
0,40,23.803,25.269
0,40,23.803,25.758
0,40,23.803,25.758
40,40,23.803,26.735
40,40,23.803,25.758
40,40,23.803,26.735
40,40,23.314,25.758
0,40,23.803,26.246
0,40,24.291,27.713
0,0,23.803,26.246
0,0,23.803,26.735
0,0,24.291,26.735
0,0,24.291,26.735
0,40,24.291,27.713
0,40,24.291,28.201
40,40,24.291,27.224
40,40,24.291,28.201
40,40,24.291,27.224
40,40,24.291,28.201
0,40,24.291,27.224
0,40,24.291,28.69
0,0,24.291,27.713
0,0,24.291,27.713
0,0,24.291,27.713
0,0,24.78,28.201
0,0,24.78,28.201
0,0,24.78,28.201
40,0,24.78,28.69
40,0,24.78,28.201
40,40,25.758,29.668
40,40,24.78,29.668
40,40,24.78,28.69
40,40,25.269,28.69
40,0,25.269,29.179
40,0,25.269,29.179
0,0,25.269,29.179
0,0,25.269,29.179
0,40,25.269,29.179
0,40,25.269,29.179
0,40,25.758,30.645
0,40,25.758,30.645
0,40,25.758,30.645
0,40,25.758,31.134
0,40,26.246,30.645
0,40,26.246,29.668
0,40,25.758,29.668
0,40,26.246,30.156
0,40,26.735,30.156
0,40,26.246,30.156
0,0,26.246,30.156
0,0,26.246,30.156
40,0,26.735,30.156
40,0,26.246,30.645
40,0,26.735,30.645
40,0,26.735,30.645
40,0,27.224,30.645
40,0,26.735,30.645
40,0,27.224,31.134
40,0,27.224,31.134
40,0,27.224,31.623
40,0,27.224,31.623
40,0,27.713,31.134
40,0,27.224,31.623
0,0,27.713,31.623
0,0,27.713,31.623
0,0,27.713,31.623
0,0,27.713,31.623
0,0,28.201,31.623
0,0,27.713,31.623
0,40,28.201,32.6
0,40,28.201,31.623
40,40,28.201,32.111
40,40,28.201,32.111
40,0,28.69,32.111
40,0,28.69,32.111
0,0,28.201,32.6
0,0,28.69,32.6
0,40,28.69,32.111
0,40,28.69,32.111
40,40,29.179,32.111
40,40,29.179,32.111
40,0,29.179,32.6
40,0,29.668,32.111
0,0,29.179,32.111
0,0,29.179,32.111
0,0,29.179,32.6
0,0,29.179,32.111
0,0,29.668,32.111
0,0,29.668,32.111
0,40,29.668,33.578
0,40,29.668,32.111
0,40,30.156,32.6
0,40,29.668,32.6
0,0,29.668,32.6
0,0,30.156,32.6
40,0,30.645,32.6
40,0,30.156,32.6
40,40,30.156,34.066
40,40,30.156,33.089
40,40,30.156,34.066
40,40,30.645,33.089
40,40,30.156,33.089
40,40,30.645,34.555
0,40,30.645,33.089
0,40,31.134,33.089
0,0,30.645,33.089
0,0,31.134,33.089
40,0,31.134,33.089
40,0,31.134,33.578
40,40,31.623,34.555
40,40,31.134,33.089
40,40,31.623,33.089
40,40,31.134,34.555
40,0,31.623,33.578
40,0,31.623,33.578
40,0,31.623,33.578
40,0,31.623,33.578
40,40,31.623,35.044
40,40,31.623,34.066
40,40,32.111,33.578
40,40,32.111,33.578
40,40,32.6,33.578
40,40,32.6,34.066
0,40,32.6,35.044
0,40,32.111,34.066
0,0,32.6,34.555
0,0,32.6,34.555
0,0,32.6,34.555
0,0,32.6,34.066
0,0,32.6,34.066
0,0,32.6,34.555
0,0,33.089,34.555
0,0,33.089,34.555
0,0,33.089,34.555
0,0,33.089,34.555
0,0,33.089,34.555
0,0,33.578,34.555
0,0,33.578,34.555
0,0,33.578,34.555
40,0,34.066,35.044
40,0,33.578,35.533
40,0,33.578,34.555
40,0,33.578,35.044
0,0,34.066,35.044
0,0,34.066,35.044
0,0,34.066,35.044
0,0,34.066,35.044
0,0,34.066,35.044
0,0,34.066,35.044
0,40,34.066,35.044
0,40,34.066,35.044
0,40,34.555,35.044
0,40,34.066,35.044
0,40,34.555,36.51
0,40,34.555,36.51
40,40,35.044,35.533
40,40,34.555,35.044
40,40,35.044,36.51
40,40,35.044,36.51
0,40,34.555,35.533
0,40,35.044,36.51
0,40,35.044,35.533
0,40,35.044,35.533
0,40,35.044,35.533
0,40,35.044,35.533
0,40,34.555,36.51
0,40,35.044,35.533
0,40,35.044,36.999
0,40,35.044,36.022
0,40,35.044,36.999
0,40,35.044,37.488
0,40,35.533,36.022
0,40,35.533,37.488
0,40,35.533,36.022
0,40,35.533,36.51
40,40,35.044,36.51
40,40,35.533,36.51
40,0,35.044,36.999
40,0,35.533,36.999
0,0,35.533,36.51
0,0,35.044,36.51
0,0,35.533,36.999
0,0,35.533,36.51
40,0,35.044,36.999
40,0,35.533,36.999
40,40,35.533,38.954
40,40,35.533,36.999
40,40,35.044,38.954
40,40,36.022,38.465
40,0,35.533,37.488
40,0,35.533,37.488
40,0,35.533,37.488
40,0,36.022,37.977
40,0,36.022,37.977
40,0,35.533,37.977
40,0,36.022,37.977
40,0,36.022,37.977
40,40,36.022,40.42
40,40,36.022,37.977
40,40,36.51,39.932
40,40,36.022,39.932
40,0,36.022,38.465
40,0,36.022,38.465
0,0,36.022,38.465
0,0,36.51,38.465
0,40,36.51,38.465
0,40,36.51,39.932
40,40,36.51,40.42
40,40,36.51,38.954
40,0,36.999,39.443
40,0,36.999,38.954
40,0,36.999,38.954
40,0,36.999,38.954
40,40,37.488,38.954
40,40,37.488,39.932
40,40,36.999,40.42
40,40,37.977,40.42
40,40,37.488,39.443
40,40,37.488,40.42
40,40,37.488,40.42
40,40,38.465,38.954
40,40,37.977,39.443
40,40,38.465,40.909
40,40,37.977,40.42
40,40,38.465,39.932
40,0,38.465,39.932
40,0,38.465,39.932
40,0,38.465,39.443
40,0,37.977,40.42
40,40,38.954,39.932
40,40,38.954,41.398
0,40,38.465,40.909
0,40,38.954,39.443
0,40,38.954,40.909
0,40,38.954,39.932
40,40,39.443,40.42
40,40,38.954,40.909
40,0,39.443,39.443
40,0,39.443,39.932
0,0,39.443,39.932
0,0,39.443,39.932
0,40,39.932,39.932
0,40,39.932,41.398
0,40,39.932,39.932
0,40,39.932,41.398
0,0,39.932,39.932
0,0,39.932,40.42
40,0,40.42,40.42
40,0,40.909,40.42
40,0,40.42,40.42
40,0,40.42,40.42
0,0,40.42,40.42
0,0,40.42,40.42
0,0,40.909,40.909
0,0,40.42,40.42
0,0,40.909,40.909
0,0,40.909,40.42
0,0,40.909,40.42
0,0,40.909,40.42
0,0,40.909,40.42
0,0,40.909,40.909
0,40,40.909,41.887
0,40,40.909,40.909
0,40,41.398,42.375
0,40,40.909,40.909
0,40,41.398,40.909
0,40,41.398,41.887
0,40,41.887,40.909
0,40,41.398,40.909
0,0,41.398,40.909
0,0,41.887,40.909
40,0,40.909,41.398
40,0,41.398,41.398
40,40,41.398,42.375
40,40,40.909,42.375
40,40,41.398,41.887
40,40,40.909,40.42
40,0,41.398,40.909
40,0,41.887,40.909
0,0,41.398,40.909
0,0,41.398,40.909
0,0,40.909,40.909
0,0,40.909,40.909
0,0,40.909,40.42
0,0,40.909,40.42
0,40,41.398,40.42
0,40,41.398,40.909
40,40,41.398,40.909
40,40,41.398,42.375
40,40,41.398,41.398
40,40,41.398,41.398
0,40,41.887,42.375
0,40,41.887,42.375
0,40,41.398,42.864
0,40,41.887,42.864
0,40,41.398,41.398
0,40,41.887,42.375
0,0,41.398,41.398
0,0,40.909,41.398
0,0,41.398,41.398
0,0,41.398,41.398
0,40,41.398,42.864
0,40,41.398,42.864
40,40,41.398,41.398
40,40,41.887,43.353
40,40,41.887,41.398
40,40,41.887,41.398
40,40,41.887,41.398
40,40,41.398,43.353
40,40,41.887,43.353
40,40,41.398,41.887
40,40,41.887,41.398
40,40,41.398,42.864
40,0,41.398,41.887
40,0,41.887,42.375
0,0,41.398,41.398
0,0,41.398,41.887
0,0,41.398,41.887
0,0,41.398,42.375
40,0,41.398,42.375
40,0,41.887,42.375
40,40,41.398,41.887
40,40,41.887,43.353
0,40,41.887,43.353
0,40,41.398,42.375
0,40,41.887,41.887
0,40,41.398,42.375
0,40,41.887,41.887
0,40,41.887,42.375
0,0,41.887,42.375
0,0,41.887,42.375
0,0,41.887,42.375
0,0,41.887,42.375
0,0,41.887,42.375
0,0,41.887,42.864
40,0,41.887,42.375
40,0,42.375,42.864
40,40,42.375,42.864
40,40,41.887,44.33
0,40,42.375,42.864
0,40,42.375,42.864
0,40,42.375,44.33
0,40,41.887,42.864
40,40,42.864,44.33
40,40,41.887,43.353
40,40,42.375,44.819
40,40,42.864,42.864
40,40,42.864,44.819
40,40,42.864,44.33
40,0,42.375,43.353
40,0,42.375,42.864
0,0,42.375,43.353
0,0,41.887,42.864
0,0,42.375,43.353
0,0,42.375,43.353
0,0,42.375,43.842
0,0,42.375,43.842
0,0,42.375,43.842
0,0,42.375,43.353
40,0,42.375,43.353
40,0,42.864,43.353
40,40,41.887,44.819
40,40,42.375,43.353
40,40,42.375,43.353
40,40,42.375,44.819
40,40,42.375,42.864
40,40,42.375,44.819
0,40,42.375,43.353
0,40,42.375,44.819
0,40,42.864,45.308
0,40,42.375,45.308
40,40,42.864,44.819
40,40,42.375,45.308
40,40,43.353,44.819
40,40,42.864,43.842
0,40,42.864,43.353
0,40,42.864,43.353
0,0,42.864,43.842
0,0,42.864,43.353
40,0,42.864,43.353
40,0,42.864,42.864
40,0,42.375,43.842
40,0,43.353,43.353
0,0,42.864,43.353
0,0,43.353,43.353
0,40,43.353,45.308
0,40,43.842,43.353
40,40,43.353,43.842
40,40,42.864,45.308
40,40,42.864,43.353
40,40,43.353,43.842
0,40,43.353,43.353
0,40,43.353,43.353
0,40,43.353,44.819
0,40,43.353,44.819
40,40,42.864,43.842
40,40,43.353,43.353
40,40,43.842,43.842
40,40,43.353,45.308
40,40,43.353,44.819
40,40,43.842,43.842
40,40,43.353,44.33
40,40,43.842,43.842
0,40,43.353,44.33
0,40,43.842,44.33
0,0,43.842,44.33
0,0,43.842,44.33
40,0,43.842,44.33
40,0,43.842,44.33
40,0,44.33,44.819
40,0,43.842,44.819
40,0,43.842,44.33
40,0,43.842,44.819
40,0,44.33,44.819
40,0,44.33,45.308
0,0,43.842,44.819
0,0,44.33,44.819
0,40,44.33,46.285
0,40,43.842,44.819
40,40,44.33,44.33
40,40,44.33,44.33
40,0,44.33,45.308
40,0,44.33,44.819
40,0,44.33,45.308
40,0,44.819,45.308
40,0,43.842,44.819
40,0,44.33,44.819
40,0,44.33,45.308
40,0,44.33,45.308
40,0,44.33,45.308
40,0,44.819,45.308
0,0,44.819,45.308
0,0,44.33,45.308
0,0,44.33,44.819
0,0,44.819,45.308
40,0,44.819,44.819
40,0,45.308,45.308
40,0,44.33,44.819
40,0,45.308,45.308
0,0,44.819,44.819
0,0,45.308,45.308
0,0,44.819,44.819
0,0,45.308,44.819
40,0,44.819,45.308
40,0,45.308,44.819
40,0,45.308,45.308
40,0,45.308,44.819
40,0,45.308,44.819
40,0,45.797,43.842
40,0,45.797,44.819
40,0,45.797,44.819
40,0,45.308,44.33
40,0,45.308,44.33
40,40,45.308,45.797
40,40,45.308,44.33
40,40,46.285,44.33
40,40,45.308,45.797
40,0,45.308,43.842
40,0,45.797,43.842
0,0,45.797,44.33
0,0,45.797,44.33
0,0,45.797,44.33
0,0,45.797,44.33
40,0,45.308,43.842
40,0,46.285,44.33
40,40,45.797,43.842
40,40,45.797,45.308
40,40,45.797,45.308
40,40,46.285,44.33
40,0,46.285,43.842
40,0,46.774,43.842
0,0,46.285,43.842
0,0,46.285,43.842
0,0,46.285,43.842
0,0,46.285,43.842
0,0,46.285,43.353
0,0,46.285,43.353
0,40,46.285,45.308
0,40,46.774,43.353
40,40,46.774,43.353
40,40,46.774,43.353
40,40,47.263,45.308
40,40,46.285,44.819
0,40,46.774,43.353
0,40,46.774,43.353
0,0,46.774,43.353
0,0,46.774,43.842
40,0,46.774,43.842
40,0,46.774,43.842
40,0,46.774,43.842
40,0,46.774,43.353
40,0,46.774,43.353
40,0,46.774,43.842
40,0,46.774,43.353
40,0,47.263,43.842
40,0,46.774,44.33
40,0,46.774,43.353
40,0,46.774,43.842
40,0,46.774,43.842
0,0,46.774,43.353
0,0,46.774,43.353
0,40,47.263,43.353
0,40,47.263,44.819
0,40,46.285,44.819
0,40,46.285,43.353
0,40,46.774,44.819
0,40,47.263,43.353
0,40,46.774,43.353
0,40,46.774,44.819
0,40,46.774,43.353
0,40,46.774,42.864
0,40,46.774,42.864
0,40,46.774,44.819
0,0,46.774,43.353
0,0,46.774,43.353
0,0,46.774,43.353
0,0,46.774,43.353
0,0,46.774,42.864
0,0,46.774,42.864
40,0,46.774,42.864
40,0,46.774,42.864
40,40,46.774,44.819
40,40,46.774,44.819
0,40,46.774,43.353
0,40,46.285,42.864
0,0,46.774,43.353
0,0,46.285,43.353
40,0,46.285,43.353
40,0,46.285,43.353
40,40,46.285,43.353
40,40,46.285,43.353
0,40,46.285,43.353
0,40,46.285,44.819
0,0,46.774,43.353
0,0,46.285,43.353
0,0,46.285,43.353
0,0,46.285,43.353
0,0,46.285,43.353
0,0,46.285,43.842
40,0,45.797,44.33
40,0,46.774,43.353
40,0,45.797,43.842
40,0,46.285,43.842
0,0,46.285,43.842
0,0,46.285,43.842
0,40,46.285,45.308
0,40,46.774,45.308
40,40,46.285,43.842
40,40,46.285,44.819
40,40,46.285,45.308
40,40,46.285,43.842
40,40,45.797,45.308
40,40,46.285,44.33
40,0,45.797,43.842
40,0,45.797,44.33
0,0,45.797,43.842
0,0,46.285,44.33
0,40,45.797,45.308
0,40,45.797,45.308
40,40,46.774,43.842
40,40,46.285,45.308
40,40,45.797,43.842
40,40,46.285,43.842
0,40,46.285,43.842
0,40,45.797,43.842
0,40,45.797,43.353
0,40,45.797,43.842
40,40,45.308,43.353
40,40,46.285,43.842
40,40,45.797,45.797
40,40,45.797,44.819
40,40,45.797,43.353
40,40,45.797,42.864
40,0,45.797,43.842
40,0,45.797,44.33
0,0,45.797,43.842
0,0,45.797,43.842
0,0,45.797,43.842
0,0,45.797,43.842
0,0,45.797,43.842
0,0,45.797,43.842
0,0,45.797,43.353
0,0,45.308,43.842
0,0,45.308,43.353
0,0,45.308,43.353
0,0,45.308,43.353
0,0,45.308,43.353
0,0,45.308,43.353
0,0,45.308,43.353
0,40,44.819,43.353
0,40,45.308,43.353
0,40,45.797,43.353
0,40,45.308,43.353
0,0,45.308,43.842
0,0,45.797,43.842
0,0,45.308,43.842
0,0,45.308,43.842
0,0,45.308,43.842
0,0,45.308,43.842
40,0,45.308,43.842
40,0,45.308,43.842
40,0,45.308,43.842
40,0,45.797,44.33
40,0,44.819,43.842
40,0,45.308,43.842
40,40,45.797,45.308
40,40,44.819,43.842
40,40,45.308,45.308
40,40,45.797,45.308
40,0,45.308,43.842
40,0,45.308,43.842
40,0,45.308,43.842
40,0,44.819,43.842
40,0,44.819,44.33
40,0,45.308,44.33
40,0,44.819,43.842
40,0,45.308,43.842
40,0,44.819,43.842
40,0,45.308,43.842
40,0,44.819,43.842
40,0,45.308,43.842
40,0,45.308,43.842
40,0,45.797,44.33
40,0,44.819,44.33
40,0,45.797,43.842
40,40,45.797,43.842
40,40,45.308,45.308
0,40,45.797,45.308
0,40,45.308,43.842
0,0,45.308,43.842
0,0,45.308,43.842
0,0,45.308,43.842
0,0,45.308,43.842
0,40,45.308,44.33
0,40,45.797,44.819
40,40,45.308,44.33
40,40,45.308,43.842
40,40,45.308,43.842
40,40,45.797,43.353
0,40,46.285,43.353
0,40,46.285,44.819
0,40,45.797,44.819
0,40,45.308,43.353
0,40,46.285,43.353
0,40,46.285,43.353
0,40,46.285,44.819
0,40,46.285,44.819
40,40,46.285,45.308
40,40,45.797,43.353
40,40,45.797,44.819
40,40,46.285,44.819
0,40,45.308,42.864
0,40,45.308,42.864
0,0,45.308,42.864
0,0,45.308,42.864
40,0,45.797,43.353
40,0,45.797,43.353
40,40,45.308,43.353
40,40,45.797,42.864
0,40,45.308,44.33
0,40,45.308,43.353
0,40,45.797,43.353
0,40,45.797,42.864
40,40,45.308,43.353
40,40,46.285,42.864
40,40,45.797,43.353
40,40,45.797,43.842
40,40,45.797,44.33
40,40,45.308,44.819
40,40,45.797,45.308
40,40,45.308,43.842
40,40,45.308,43.842
40,40,45.797,43.842
40,40,45.797,43.842
40,40,45.797,43.842
0,40,45.797,43.842
0,40,45.308,43.842
0,40,45.308,43.842
0,40,45.797,44.819
40,40,45.797,45.797
40,40,45.797,45.308
40,0,45.797,44.33
40,0,45.797,44.33
40,0,46.285,44.33
40,0,46.285,44.33
40,40,46.774,43.842
40,40,46.285,44.33
0,40,46.285,44.33
0,40,45.797,44.819
0,0,46.285,44.819
0,0,46.285,44.819
40,0,46.285,44.819
40,0,46.285,45.308
40,0,46.285,45.308
40,0,46.285,45.308
0,0,46.285,45.308
0,0,46.285,45.308
0,40,46.285,46.285
0,40,46.285,45.308
0,40,46.285,45.308
0,40,46.285,45.308
0,0,46.285,45.308
0,0,46.285,45.308
0,0,46.285,45.308
0,0,46.774,45.308
0,0,46.774,45.308
0,0,46.285,45.797
0,0,46.285,45.797
0,0,46.285,45.308
0,0,46.285,45.797
0,0,46.285,45.797
40,0,46.285,45.797
40,0,46.285,45.797
40,0,46.285,45.797
40,0,46.774,45.797
40,0,46.774,45.308
40,0,46.774,46.285
40,0,45.797,45.797
40,0,46.774,45.797
0,0,46.774,46.285
0,0,46.285,45.797
0,40,46.285,45.797
0,40,46.774,47.263
40,40,46.774,46.774
40,40,46.285,47.263
40,40,46.285,45.797
40,40,46.285,46.774
0,40,46.774,46.774
0,40,46.774,46.774
0,0,46.285,45.308
0,0,46.285,45.797
0,0,45.797,45.797
0,0,46.285,45.797
0,0,46.285,45.308
0,0,46.285,45.308
40,0,46.285,45.308
40,0,46.285,45.797
40,40,46.285,46.774
40,40,45.797,45.797
40,40,45.797,47.263
40,40,46.285,45.308
40,0,46.285,45.308
40,0,46.285,45.797
40,0,46.285,45.308
40,0,46.285,45.308
40,0,46.285,45.308
40,0,45.797,45.797
0,0,46.285,45.308
0,0,45.797,45.308
0,0,46.285,45.308
0,0,45.797,45.308
40,0,46.285,45.308
40,0,45.797,45.797
40,40,46.285,44.819
40,40,46.285,44.819
40,40,45.797,45.308
40,40,45.797,44.819
40,40,45.797,44.819
40,40,46.285,45.308
40,40,46.285,45.308
40,40,46.285,44.819
40,40,46.774,46.285
40,40,46.285,45.308
0,40,46.285,46.285
0,40,46.774,44.819
0,0,46.285,44.819
0,0,46.285,44.819
0,0,46.285,44.819
0,0,45.797,45.308
0,40,46.285,46.285
0,40,45.797,44.819
40,40,46.774,46.285
40,40,46.774,45.308
40,0,46.285,44.819
40,0,46.774,44.819
40,0,45.797,45.308
40,0,46.285,44.819
40,0,46.285,44.819
40,0,46.774,44.819
0,0,46.774,45.308
0,0,46.285,45.308
0,0,46.285,45.308
0,0,46.285,45.308
0,0,46.774,44.819
0,0,46.285,45.308
0,40,46.285,44.819
0,40,46.774,44.819
40,40,47.263,46.774
40,40,46.285,46.774
40,0,46.774,44.819
40,0,46.285,45.308
40,0,46.774,44.819
40,0,46.285,45.308
40,40,46.774,44.33
40,40,46.285,44.33
40,40,46.285,46.774
40,40,46.285,46.285
40,40,46.774,44.819
40,40,46.285,46.285
0,40,46.285,46.285
0,40,46.774,46.285
0,0,46.285,44.819
0,0,46.285,44.819
0,0,46.285,44.819
0,0,46.285,44.819
0,0,46.774,44.819
0,0,46.285,45.308
0,0,46.774,44.819
0,0,46.774,45.308
0,40,46.774,44.819
0,40,46.774,45.308
40,40,47.263,46.774
40,40,46.774,45.308
40,40,46.774,45.797
40,40,47.263,46.285
40,40,47.263,44.819
40,40,47.263,45.308
40,0,46.285,45.308
40,0,46.774,45.308
40,0,46.774,45.308
40,0,46.774,45.308
40,40,47.263,44.819
40,40,46.774,45.308
40,40,46.774,45.308
40,40,46.774,46.774
40,0,47.263,44.819
40,0,46.774,45.308
0,0,46.774,44.819
0,0,46.774,45.308
0,40,47.263,45.308
0,40,47.263,45.308
0,40,46.774,45.308
0,40,46.774,45.308
0,0,46.774,45.308
0,0,46.774,45.308
40,0,46.774,45.308
40,0,47.263,45.308
40,40,47.263,45.308
40,40,47.263,45.308
40,40,46.774,45.308
40,40,47.752,45.797
40,0,46.774,45.308
40,0,47.263,45.797
40,0,46.774,46.285
40,0,46.774,45.797
40,40,47.752,47.263
40,40,47.263,47.263
40,40,47.752,46.774
40,40,47.752,46.774
40,40,47.263,47.263
40,40,47.263,47.263
40,40,47.263,47.263
40,40,47.752,46.285
40,0,47.263,45.797
40,0,47.263,45.797
0,0,47.263,45.797
0,0,47.263,45.308
0,40,47.263,45.797
0,40,47.263,45.797
0,40,47.752,45.797
0,40,47.752,45.797
0,40,47.752,45.797
0,40,47.752,47.263
0,40,48.24,47.752
0,40,47.752,47.263
0,0,47.752,46.285
0,0,47.752,46.285
40,0,48.24,45.797
40,0,48.24,46.285
40,40,48.24,46.285
40,40,47.752,46.285
