0,0,27.224,26.735
0,0,27.224,26.735
0,0,27.224,26.735
0,0,26.735,27.224
25,25,27.713,28.201
25,25,27.224,26.735
25,25,27.224,26.735
25,25,26.735,27.224
25,25,27.224,26.735
25,25,27.224,26.735
25,25,27.224,27.224
25,25,27.224,26.735
25,25,27.713,26.735
25,25,27.224,26.735
25,25,27.224,26.735
25,25,27.224,27.224
25,25,27.224,27.713
25,25,27.224,26.735
25,25,27.713,26.735
25,25,27.224,28.201
25,25,27.713,27.224
25,25,27.713,28.201
25,25,27.713,27.224
25,25,27.713,27.224
25,25,27.713,27.224
25,25,27.713,28.201
25,25,28.201,27.224
25,25,27.713,27.224
25,25,27.713,27.224
25,25,27.713,27.224
25,25,27.713,27.224
25,25,27.713,27.713
25,25,28.201,27.713
25,25,28.201,27.713
25,25,28.201,27.713
25,25,28.201,27.713
25,25,28.69,28.69
25,25,28.201,27.713
25,25,28.201,29.179
25,25,28.69,28.201
25,25,28.69,28.201
25,25,28.69,28.69
25,25,28.69,28.201
25,25,28.69,28.201
25,25,29.179,28.201
25,25,28.69,28.69
25,25,29.179,28.69
25,25,29.179,29.668
25,25,29.179,28.69
25,25,28.69,29.179
25,25,29.179,28.69
25,25,29.668,29.668
25,25,29.668,29.179
25,25,29.179,29.179
25,25,30.156,30.156
25,25,29.668,30.645
25,25,29.668,29.668
25,25,30.156,29.668
25,25,29.668,29.179
25,25,30.156,29.668
25,25,29.668,29.668
25,25,30.645,30.645
25,25,30.156,29.668
25,25,30.645,30.156
25,25,30.156,30.156
25,25,30.645,31.623
25,25,31.134,30.156
25,25,31.134,32.111
25,25,31.623,30.645
25,25,31.134,30.645
25,25,31.134,31.134
25,25,31.623,30.645
25,25,31.623,31.623
25,25,31.623,31.134
25,25,31.623,33.089
25,25,32.111,31.134
25,25,32.111,32.6
25,25,31.623,32.6
25,25,32.111,32.111
25,25,32.111,31.623
25,25,32.6,31.623
25,25,32.6,31.623
25,25,32.6,32.111
25,25,33.089,32.6
25,25,32.6,33.089
25,25,33.578,32.111
25,25,33.089,34.066
25,25,33.089,33.578
25,25,33.089,32.6
25,25,33.089,32.6
25,25,33.578,33.578
25,25,33.578,32.6
25,25,33.578,33.089
25,25,34.066,33.578
25,25,33.578,33.089
25,25,34.066,34.066
25,25,33.578,33.578
25,25,33.578,34.555
25,25,34.555,33.089
25,25,34.066,33.089
25,25,34.066,33.578
25,25,34.555,33.578
25,25,34.066,33.578
25,25,34.555,33.578
25,25,34.066,35.533
25,25,35.044,34.066
25,25,34.555,34.066
25,25,34.555,34.066
25,25,34.555,34.066
25,25,34.555,34.066
25,25,35.044,34.066
25,25,35.044,34.066
25,25,35.044,34.066
25,25,35.533,35.533
25,25,35.044,34.555
25,25,35.044,36.022
25,25,36.022,34.555
25,25,36.022,34.555
25,25,35.533,36.022
25,25,35.533,34.555
25,25,35.533,35.044
25,25,36.022,36.51
25,25,36.022,36.022
25,25,36.022,34.555
25,25,36.51,35.044
25,25,36.022,35.044
25,25,36.022,35.533
25,25,36.999,35.533
25,25,36.999,36.022
25,25,36.999,37.488
25,25,36.51,36.022
25,25,36.999,36.022
25,25,36.999,36.51
25,25,36.999,36.022
25,25,36.999,36.022
25,25,36.999,36.022
25,25,37.488,37.488
25,25,36.999,36.51
25,25,37.977,36.51
25,25,37.488,36.51
25,25,37.488,36.999
25,25,37.488,36.999
25,25,37.488,36.999
25,25,37.977,37.977
25,25,37.488,36.999
25,25,37.977,36.999
25,25,37.488,36.999
25,25,37.977,38.465
25,25,37.977,37.488
25,25,37.977,37.488
25,25,37.977,37.977
25,25,37.977,38.465
25,25,38.465,37.488
25,25,37.977,37.488
25,25,38.465,39.443
25,25,38.465,37.977
25,25,38.465,37.488
25,25,38.465,37.488
25,25,38.954,37.488
25,25,38.465,37.977
25,25,38.465,37.977
25,25,38.954,37.977
25,25,38.465,37.977
25,25,38.954,37.977
25,25,38.465,37.977
25,25,39.443,37.977
25,25,38.954,39.443
25,25,38.954,37.977
25,25,39.443,38.465
25,25,39.443,39.443
25,25,39.443,38.465
25,25,39.932,38.465
25,25,39.443,38.954
25,25,39.443,38.954
25,25,39.443,38.954
25,25,39.443,38.954
25,25,39.932,38.465
25,25,40.42,38.954
25,25,39.932,39.443
25,25,39.932,40.909
25,25,39.932,40.42
25,25,40.42,40.42
25,25,40.42,38.954
25,25,40.42,39.443
25,25,40.42,39.443
25,25,40.42,39.443
25,25,40.42,39.443
25,25,40.909,40.42
25,25,40.42,40.909
25,25,40.42,40.42
25,25,40.909,39.932
25,25,40.909,39.932
25,25,40.909,39.932
25,25,41.398,39.932
25,25,41.398,39.932
25,25,40.909,39.932
25,25,41.398,39.932
25,25,40.909,40.909
25,25,41.398,41.398
25,25,41.398,40.42
25,25,41.398,41.887
25,25,41.398,40.909
25,25,41.887,40.42
25,25,41.887,40.42
25,25,41.398,40.42
25,25,42.375,40.909
25,25,41.887,41.398
25,25,41.887,40.909
25,25,41.887,42.375
25,25,42.375,41.398
25,25,41.887,40.909
25,25,41.398,40.909
25,25,42.375,41.398
25,25,42.375,41.398
25,25,42.375,42.864
25,25,42.864,41.398
25,25,42.375,42.864
25,25,42.375,41.887
25,25,42.864,41.398
25,25,42.864,41.398
25,25,42.864,41.398
25,25,42.375,41.398
25,25,42.864,41.398
25,25,42.864,41.887
25,25,42.375,41.398
25,25,42.864,41.887
25,25,42.864,41.398
25,25,42.864,42.864
25,25,42.864,41.887
25,25,42.864,41.398
25,25,42.864,42.375
25,25,42.864,41.887
25,25,43.353,42.375
25,25,43.353,41.887
25,25,43.353,41.887
25,25,43.353,43.353
25,25,43.353,41.887
25,25,43.353,41.887
25,25,43.353,42.864
25,25,42.864,42.375
25,25,43.353,42.375
25,25,43.353,42.375
25,25,43.353,43.842
25,25,43.842,42.375
25,25,43.842,42.375
25,25,44.33,42.375
25,25,43.842,42.375
25,25,43.842,42.375
25,25,43.842,42.864
25,25,43.842,42.864
25,25,43.842,44.33
25,25,44.33,42.864
25,25,44.33,42.864
25,25,44.33,44.33
25,25,43.842,44.33
25,25,44.819,44.33
25,25,43.842,42.864
25,25,44.33,42.864
25,25,44.819,42.864
25,25,44.819,43.353
25,25,44.33,44.33
25,25,44.33,43.353
25,25,44.819,43.353
25,25,44.819,43.353
25,25,44.819,43.842
25,25,44.819,43.353
25,25,44.33,42.864
25,25,44.819,43.353
25,25,45.308,45.308
25,25,44.33,43.353
25,25,44.819,44.819
25,25,44.819,44.819
25,25,44.819,44.819
25,25,44.819,43.353
25,25,44.819,43.353
25,25,44.819,43.842
25,25,44.819,43.353
25,25,44.819,45.308
25,25,44.819,44.819
25,25,45.308,43.353
25,25,44.819,43.842
25,25,44.819,43.842
25,25,44.819,43.842
25,25,45.797,44.819
25,25,45.797,43.842
25,25,45.797,43.842
25,25,45.308,43.842
25,25,45.797,43.842
25,25,45.308,44.819
25,25,45.308,44.819
25,25,45.797,44.33
25,25,45.308,44.819
25,25,46.285,44.819
25,25,45.797,44.819
25,25,45.797,46.285
25,25,46.774,46.285
25,25,46.285,46.285
25,25,46.774,46.774
25,25,45.797,45.308
25,25,46.285,44.819
25,25,45.797,44.819
25,25,46.285,44.819
25,25,46.285,46.285
25,25,45.797,44.819
25,25,45.797,44.819
25,25,46.285,45.308
25,25,46.285,46.285
25,25,45.797,45.797
25,25,46.285,44.819
25,25,46.285,45.308
25,25,45.797,44.819
25,25,46.285,44.819
25,25,46.285,44.819
25,25,47.263,44.819
25,25,46.285,44.819
25,25,45.797,45.308
25,25,46.285,44.819
25,25,46.774,44.819
25,25,46.285,44.819
25,25,46.285,44.819
25,25,46.285,45.308
25,25,46.774,44.819
25,25,47.263,44.819
25,25,46.774,46.285
25,25,46.774,45.308
25,25,46.774,44.819
25,25,46.285,44.819
25,25,45.797,44.819
25,25,45.797,44.819
25,25,46.774,44.819
25,25,46.774,45.308
25,25,46.285,44.819
25,25,46.285,44.819
25,25,46.285,45.308
25,25,46.774,46.774
25,25,46.774,44.819
25,25,46.774,44.819
25,25,47.263,44.819
25,25,46.774,45.797
25,25,46.285,46.285
25,25,47.263,44.819
25,25,46.285,44.819
25,25,46.774,46.285
25,25,46.285,45.308
25,25,46.285,44.819
25,25,47.263,44.819
25,25,46.285,46.285
25,25,46.774,45.308
25,25,47.263,46.285
25,25,46.774,44.819
25,25,46.285,46.774
25,25,46.774,44.819
25,25,46.285,44.819
25,25,46.285,45.308
25,25,46.285,45.308
25,25,46.774,45.308
25,25,46.285,44.819
25,25,46.774,44.819
25,25,46.285,45.308
25,25,46.774,45.308
25,25,46.774,44.819
25,25,46.774,45.308
25,25,47.263,44.819
25,25,46.774,45.308
25,25,46.774,45.308
25,25,47.263,46.774
25,25,46.774,44.819
25,25,46.774,45.308
25,25,46.774,47.263
25,25,46.774,45.308
25,25,47.263,46.774
25,25,47.263,46.774
25,25,46.774,45.308
25,25,46.774,45.308
25,25,46.774,46.774
25,25,46.774,45.308
25,25,47.263,46.774
25,25,46.285,46.774
25,25,46.774,45.797
25,25,47.263,45.308
25,25,46.774,46.285
25,25,47.263,45.797
25,25,46.774,46.774
25,25,46.774,46.774
25,25,47.263,45.308
25,25,46.774,47.263
25,25,47.752,45.308
25,25,47.263,45.308
25,25,46.774,45.797
25,25,46.774,46.774
25,25,46.774,45.308
25,25,47.263,45.797
25,25,48.24,45.797
25,25,47.263,46.285
25,25,47.263,45.797
25,25,47.752,47.263
25,25,46.774,46.285
25,25,47.263,47.752
25,25,47.263,46.285
25,25,47.752,46.285
25,25,47.752,46.285
25,25,47.263,47.752
25,25,47.752,46.285
25,25,47.752,48.24
25,25,47.752,47.752
25,25,48.24,47.752
25,25,48.24,47.752
25,25,48.24,46.285
25,25,47.752,45.797
25,25,47.752,46.285
25,25,48.24,46.285
25,25,48.24,48.24
25,25,47.752,46.774
25,25,47.752,46.774
25,25,47.752,46.774
25,25,48.24,46.774
25,25,48.24,47.263
25,25,48.24,47.263
25,25,48.729,47.263
25,25,48.24,48.24
25,25,48.24,46.774
25,25,48.729,46.774
25,25,48.24,47.263
25,25,48.729,47.752
25,25,48.24,47.263
25,25,48.24,47.752
25,25,48.729,47.263
25,25,49.218,47.263
25,25,48.729,47.263
25,25,48.729,47.752
25,25,49.218,47.752
25,25,48.729,49.218
25,25,48.729,47.752
25,25,48.729,49.218
25,25,48.729,47.752
25,25,48.729,48.24
25,25,48.729,47.263
25,25,48.729,47.752
25,25,49.218,47.752
25,25,48.729,47.752
25,25,48.729,48.24
25,25,49.218,47.752
25,25,48.729,48.24
25,25,49.707,47.752
25,25,49.218,50.196
25,25,49.218,47.752
25,25,49.707,47.752
25,25,48.729,47.752
25,25,48.729,48.24
25,25,49.218,47.752
25,25,49.218,48.24
25,25,48.24,47.752
25,25,49.218,47.752
25,25,48.729,49.218
25,25,49.218,48.729
25,25,49.218,48.24
25,25,48.729,48.24
25,25,48.729,49.707
25,25,48.729,49.218
25,25,48.729,49.218
25,25,48.729,48.729
25,25,48.729,49.218
25,25,48.729,47.752
25,25,48.729,47.263
25,25,49.218,47.263
25,25,49.218,47.752
25,25,48.729,47.752
25,25,48.729,47.752
25,25,48.729,46.774
25,25,49.218,47.263
25,25,49.218,47.752
25,25,49.707,47.263
25,25,49.707,48.729
25,25,49.218,47.263
25,25,49.218,49.218
25,25,48.729,47.752
25,25,49.218,47.263
25,25,49.218,47.263
25,25,48.729,49.218
25,25,48.729,48.24
25,25,49.218,47.752
25,25,49.218,47.752
25,25,49.218,48.24
25,25,49.218,49.218
25,25,48.729,49.707
25,25,49.218,47.752
25,25,49.707,47.752
25,25,49.218,47.752
25,25,48.729,47.263
25,25,49.218,47.752
25,25,50.196,49.218
25,25,49.218,46.774
25,25,49.218,49.707
25,25,48.729,47.263
25,25,49.218,47.752
25,25,49.707,48.729
25,25,50.196,49.218
25,25,49.218,47.752
25,25,50.196,47.752
25,25,49.707,47.752
23,23,49.707,47.752
23,23,50.196,47.752
23,23,49.707,47.752
23,23,49.707,49.707
23,23,49.707,48.24
23,23,50.196,48.24
23,27,49.707,48.24
23,27,50.196,47.752
27,27,49.707,48.24
27,27,50.196,48.24
27,27,49.707,48.24
27,27,49.707,48.729
23,27,50.684,49.218
23,27,50.196,50.196
23,23,50.196,48.729
23,23,50.196,49.218
27,23,49.707,48.729
27,23,50.196,49.218
27,23,50.196,49.218
27,23,50.196,50.196
27,23,49.707,48.729
27,23,50.684,48.729
27,23,49.707,48.729
27,23,49.707,48.729
27,23,50.196,48.729
27,23,50.196,48.729
27,23,49.707,48.24
27,23,49.707,48.24
23,23,49.707,48.24
23,23,49.707,48.729
23,27,49.707,48.729
23,27,50.196,48.729
23,27,50.196,48.729
23,27,50.196,51.173
23,27,50.196,48.729
23,27,49.707,49.218
23,27,50.196,48.24
23,27,50.196,50.196
23,27,50.196,48.24
23,27,50.196,48.729
23,27,50.684,48.24
23,27,49.707,48.729
23,23,49.707,50.196
23,23,49.707,50.196
23,23,49.707,48.24
23,23,49.707,48.729
23,23,50.196,47.752
23,23,49.707,48.24
27,23,50.196,47.752
27,23,49.218,47.752
27,27,49.707,48.24
27,27,50.196,48.729
23,27,49.707,47.752
23,27,49.707,49.707
23,23,49.707,48.24
23,23,49.707,48.24
27,23,50.196,48.729
27,23,50.196,49.707
27,27,49.707,48.24
27,27,49.707,50.196
23,27,49.707,48.24
23,27,50.196,50.196
23,23,50.196,48.729
23,23,50.684,48.24
23,23,50.684,48.729
23,23,50.684,48.729
23,23,50.684,50.196
23,23,50.684,49.218
27,23,50.196,48.729
27,23,50.196,49.218
27,23,51.173,49.707
27,23,50.684,48.729
23,23,50.684,48.729
23,23,50.196,49.218
23,27,50.684,49.218
23,27,50.196,49.707
27,27,50.684,48.729
27,27,50.684,49.218
27,27,51.173,49.218
27,27,51.173,49.707
27,27,51.173,49.218
27,27,50.196,49.707
27,23,51.662,49.218
27,23,50.684,51.173
23,23,51.173,51.173
23,23,50.684,51.173
23,27,51.173,50.196
23,27,51.173,51.662
27,27,51.173,51.662
27,27,51.173,50.196
27,27,50.684,50.196
27,27,51.173,51.662
23,27,51.173,50.196
23,27,51.173,50.196
23,27,51.173,50.196
23,27,50.684,50.196
27,27,51.173,51.662
27,27,50.684,50.684
27,27,51.173,50.684
27,27,51.173,51.662
27,27,51.173,50.684
27,27,51.173,52.151
27,23,51.662,52.639
27,23,51.662,51.173
23,23,51.173,52.639
23,23,51.662,53.128
23,23,51.662,51.662
23,23,51.173,53.128
23,23,51.173,51.173
23,23,51.662,51.173
23,23,51.173,50.684
23,23,51.173,51.173
23,23,50.684,51.173
23,23,51.173,53.128
23,23,51.173,51.173
23,23,51.173,51.173
23,23,52.151,51.662
23,23,51.662,52.639
23,27,52.151,53.128
23,27,51.662,53.128
23,27,52.151,51.173
23,27,51.662,51.662
23,23,51.173,51.662
23,23,51.662,51.662
23,23,51.173,52.151
23,23,51.173,52.151
23,23,52.151,52.151
23,23,51.662,51.662
27,23,51.662,51.662
27,23,51.662,51.173
27,23,52.151,51.662
27,23,51.662,51.662
27,23,51.662,51.662
27,23,51.662,51.662
27,27,51.662,51.662
27,27,51.662,52.151
27,27,51.662,51.662
27,27,51.662,52.151
27,23,52.151,53.617
27,23,52.151,52.151
27,23,52.151,52.151
27,23,51.662,51.662
27,23,52.151,52.151
27,23,52.151,51.662
27,23,51.662,51.662
27,23,51.662,53.128
27,23,52.151,51.662
27,23,52.151,51.662
27,23,52.151,51.662
27,23,52.151,51.662
27,23,52.639,51.662
27,23,52.151,51.662
27,23,52.151,52.151
27,23,52.151,52.151
27,27,52.639,52.151
27,27,51.662,52.639
23,27,51.662,51.662
23,27,52.151,51.662
23,23,52.639,52.639
23,23,52.151,51.662
23,23,52.151,51.662
23,23,51.662,51.662
23,27,51.662,51.662
23,27,51.662,51.662
27,27,52.639,52.639
27,27,52.151,52.639
27,27,52.639,50.684
27,27,52.151,50.684
23,27,51.662,50.684
23,27,51.662,50.684
23,27,51.662,50.196
23,27,52.151,50.684
23,27,51.662,51.662
23,27,52.151,50.684
23,27,52.151,51.662
23,27,51.662,51.173
27,27,52.151,50.196
27,27,51.662,52.151
27,27,51.662,51.662
27,27,51.662,50.684
23,27,51.662,51.662
23,27,51.662,50.684
23,23,51.662,50.196
23,23,52.151,50.196
27,23,51.173,50.196
27,23,51.662,49.707
27,27,51.662,51.662
27,27,51.662,49.707
23,27,52.151,49.707
23,27,52.151,49.707
23,27,51.662,50.196
23,27,51.662,50.196
27,27,51.662,50.196
27,27,51.662,49.707
27,27,53.128,50.196
27,27,51.662,50.196
27,27,52.151,50.196
27,27,52.151,50.196
27,27,52.639,49.707
27,27,52.151,50.196
27,27,52.639,51.173
27,27,51.662,49.707
27,27,52.151,51.662
27,27,52.151,49.707
23,27,52.639,50.196
23,27,52.151,50.196
23,27,52.151,50.196
23,27,52.639,50.684
27,27,52.639,51.173
27,27,52.639,52.151
27,23,52.639,52.639
27,23,52.639,50.684
27,23,52.151,51.173
27,23,52.639,51.173
27,27,52.639,51.173
27,27,53.128,51.173
23,27,52.639,52.639
23,27,52.639,51.173
23,23,53.128,52.639
23,23,52.639,51.173
27,23,52.151,53.128
27,23,52.639,50.684
27,23,52.639,51.173
27,23,52.639,50.684
23,23,52.639,51.173
23,23,52.639,51.173
23,27,52.639,51.173
23,27,52.639,51.173
23,27,52.639,51.173
23,27,53.617,53.128
23,23,52.639,51.173
23,23,53.128,50.684
23,23,52.639,51.173
23,23,52.639,51.173
23,23,53.128,51.173
23,23,53.128,52.639
23,23,52.639,51.662
23,23,52.639,51.173
23,23,52.639,53.128
23,23,52.639,51.662
27,23,52.639,52.151
27,23,53.617,53.128
27,23,52.639,51.662
27,23,53.128,53.128
27,23,53.128,51.662
27,23,52.639,52.151
27,23,52.639,52.151
27,23,53.128,51.173
23,23,52.639,52.151
23,23,53.128,51.662
23,27,53.128,51.173
23,27,53.128,52.639
27,27,53.128,52.639
27,27,52.639,51.662
27,27,52.151,51.173
27,27,52.639,51.173
23,27,53.128,50.684
23,27,52.639,52.151
23,23,52.151,52.639
23,23,52.639,51.173
23,23,53.128,51.662
23,23,52.639,52.639
23,23,52.639,51.173
23,23,52.639,51.662
27,23,52.639,52.151
27,23,52.639,51.662
27,27,53.128,51.662
27,27,54.106,52.151
27,27,53.128,53.128
27,27,53.128,52.151
27,23,53.128,51.662
27,23,53.128,54.106
27,23,53.617,52.151
27,23,53.128,52.639
27,23,53.128,53.617
27,23,52.639,53.617
23,23,53.128,52.151
23,23,53.128,52.151
23,23,52.639,52.151
23,23,52.639,52.151
27,23,53.128,52.151
27,23,53.128,52.151
27,27,53.617,51.662
27,27,53.128,54.106
27,27,53.617,53.617
27,27,53.617,51.662
27,27,53.128,53.617
27,27,53.617,53.128
27,27,53.128,51.662
27,27,53.128,51.662
27,27,53.617,52.151
27,27,53.128,53.617
23,27,53.128,51.662
23,27,53.128,51.662
23,23,53.128,52.151
23,23,53.617,51.662
23,23,53.128,53.128
23,23,53.128,51.662
23,27,53.128,52.151
23,27,53.128,53.128
27,27,53.128,53.128
27,27,53.617,53.128
27,23,52.639,52.151
27,23,53.128,51.662
27,23,53.128,51.173
27,23,54.106,53.128
27,23,53.128,51.173
27,23,52.639,51.173
23,23,53.128,51.173
23,23,53.128,51.173
23,23,53.617,50.684
23,23,53.617,52.639
23,23,52.639,51.173
23,23,52.639,51.173
23,27,52.639,51.173
23,27,53.128,52.639
27,27,53.128,51.173
27,27,53.617,52.639
27,23,52.639,51.173
27,23,52.639,51.173
27,23,52.639,51.173
27,23,53.617,51.173
27,27,53.128,52.639
27,27,53.128,51.173
27,27,53.128,51.173
27,27,53.128,52.151
27,27,53.617,51.173
27,27,53.128,50.684
23,27,53.128,50.684
23,27,53.128,51.173
23,23,53.128,50.684
23,23,52.639,50.684
23,23,52.639,50.684
23,23,53.617,52.639
23,23,52.639,51.173
23,23,53.128,51.173
23,23,53.617,51.662
23,23,53.128,51.662
23,27,52.639,51.662
23,27,53.128,51.662
27,27,53.617,53.128
27,27,53.617,51.662
27,27,53.617,53.128
27,27,53.128,51.662
27,27,54.106,52.151
27,27,53.617,52.151
27,23,53.617,51.662
27,23,53.617,51.662
27,23,52.639,51.662
27,23,53.617,53.617
27,27,53.617,53.128
27,27,53.617,52.151
27,27,52.639,52.151
27,27,52.639,52.151
27,23,53.128,52.151
27,23,53.617,53.617
23,23,53.617,51.662
23,23,53.617,53.617
23,27,53.128,52.151
23,27,53.128,51.662
23,27,53.617,51.662
23,27,53.128,53.128
23,23,53.617,50.684
23,23,53.128,51.662
27,23,53.128,51.173
27,23,53.128,51.173
27,27,53.128,50.684
27,27,53.128,52.639
27,27,53.128,51.173
27,27,53.128,51.662
27,23,53.617,51.662
27,23,53.617,53.128
27,23,53.128,53.617
27,23,53.617,51.662
27,27,53.128,53.617
27,27,53.617,53.617
27,27,53.128,51.662
27,27,52.639,51.662
27,27,54.106,51.662
27,27,53.128,53.617
27,27,53.128,53.617
27,27,53.128,51.662
27,23,53.617,51.662
27,23,53.128,51.662
23,23,53.128,52.151
23,23,53.128,51.662
23,27,53.128,51.662
23,27,53.128,52.151
23,27,53.617,53.128
23,27,53.617,52.639
23,27,53.617,51.662
23,27,53.617,53.617
23,27,53.128,52.639
23,27,53.617,52.151
23,23,54.106,53.617
23,23,53.128,52.151
27,23,54.106,53.617
27,23,53.128,52.151
27,27,53.617,52.151
27,27,53.617,51.662
