0,0,23,23
0,40,23,23.003
0,40,23,23.012
0,40,23,23.027
0,40,23,23.047
0,40,23,23.072
0,40,23,23.102
0,0,23,23.136
0,0,23,23.169
0,0,23.001,23.2
0,0,23.001,23.23
0,0,23.001,23.259
0,0,23.001,23.286
0,0,23.002,23.311
0,0,23.002,23.336
0,40,23.002,23.36
0,40,23.003,23.388
0,40,23.003,23.42
0,40,23.003,23.458
0,40,23.004,23.499
0,40,23.004,23.544
0,40,23.005,23.593
0,40,23.006,23.646
0,40,23.006,23.702
0,40,23.007,23.761
0,40,23.008,23.824
0,40,23.008,23.889
0,40,23.009,23.957
0,40,23.01,24.027
0,40,23.011,24.101
0,40,23.012,24.176
0,0,23.013,24.252
0,0,23.015,24.326
0,0,23.016,24.396
0,0,23.017,24.462
0,0,23.018,24.524
0,0,23.02,24.583
0,0,23.021,24.639
0,0,23.023,24.692
0,40,23.024,24.742
0,40,23.026,24.795
0,40,23.028,24.851
0,40,23.029,24.91
0,40,23.031,24.972
0,40,23.033,25.036
0,40,23.035,25.103
0,40,23.037,25.172
0,40,23.039,25.243
0,40,23.041,25.317
0,40,23.043,25.392
0,40,23.045,25.469
0,40,23.047,25.548
0,40,23.049,25.629
0,40,23.051,25.711
0,40,23.054,25.794
0,40,23.056,25.879
0,40,23.059,25.965
40,40,23.063,26.052
40,40,23.074,26.141
40,40,23.092,26.23
40,40,23.118,26.32
40,40,23.151,26.412
40,40,23.191,26.504
40,0,23.237,26.596
40,0,23.29,26.683
0,0,23.347,26.765
0,0,23.402,26.843
0,0,23.455,26.916
0,0,23.506,26.984
0,0,23.554,27.048
0,0,23.6,27.108
0,0,23.644,27.164
0,0,23.686,27.216
40,0,23.727,27.264
40,0,23.773,27.309
40,0,23.826,27.351
40,0,23.883,27.39
40,0,23.946,27.425
40,0,24.014,27.458
40,0,24.087,27.488
40,0,24.165,27.516
0,0,24.245,27.541
0,0,24.323,27.563
0,0,24.397,27.584
0,0,24.468,27.602
0,0,24.534,27.618
0,0,24.598,27.632
0,40,24.658,27.646
0,40,24.715,27.662
40,40,24.77,27.683
40,40,24.829,27.708
40,40,24.894,27.736
40,40,24.963,27.768
40,40,25.036,27.804
40,40,25.114,27.842
40,40,25.196,27.884
40,40,25.281,27.928
0,40,25.369,27.975
0,40,25.454,28.025
0,40,25.535,28.078
0,40,25.611,28.132
0,40,25.682,28.189
0,40,25.75,28.248
0,40,25.815,28.309
0,40,25.875,28.372
40,40,25.934,28.437
40,40,25.996,28.503
40,40,26.063,28.571
40,40,26.134,28.64
40,40,26.209,28.711
40,40,26.288,28.783
40,40,26.371,28.856
40,40,26.458,28.931
40,40,26.548,29.006
40,40,26.641,29.083
40,40,26.737,29.161
40,40,26.836,29.239
40,40,26.937,29.318
40,40,27.041,29.398
40,0,27.148,29.478
40,0,27.256,29.554
0,0,27.366,29.624
0,0,27.47,29.689
0,0,27.569,29.75
0,0,27.662,29.806
0,0,27.75,29.858
0,0,27.832,29.906
0,40,27.91,29.95
0,40,27.983,29.996
0,40,28.051,30.044
0,40,28.115,30.095
0,40,28.174,30.147
0,40,28.23,30.201
0,40,28.282,30.257
0,40,28.33,30.314
0,0,28.375,30.372
0,0,28.417,30.427
40,0,28.456,30.477
40,0,28.5,30.522
40,0,28.548,30.564
40,0,28.601,30.602
40,0,28.658,30.636
40,0,28.72,30.666
40,0,28.785,30.694
40,0,28.854,30.718
40,0,28.927,30.739
40,0,29.003,30.757
40,0,29.082,30.772
40,0,29.164,30.785
40,0,29.249,30.796
40,0,29.336,30.803
40,0,29.426,30.809
40,0,29.519,30.813
0,0,29.612,30.814
0,0,29.7,30.814
0,0,29.783,30.811
0,0,29.86,30.807
0,0,29.932,30.802
0,0,29.999,30.794
0,0,30.061,30.785
0,0,30.118,30.775
0,0,30.171,30.763
0,0,30.22,30.75
0,0,30.264,30.736
0,0,30.305,30.721
0,0,30.342,30.704
0,0,30.375,30.687
0,0,30.405,30.668
0,0,30.432,30.648
0,0,30.456,30.628
0,0,30.477,30.606
0,0,30.494,30.584
0,0,30.51,30.561
0,0,30.522,30.537
0,0,30.532,30.513
0,40,30.54,30.489
0,40,30.546,30.469
40,40,30.551,30.455
40,40,30.56,30.445
40,40,30.575,30.44
40,40,30.596,30.44
40,40,30.623,30.444
40,40,30.654,30.452
40,40,30.69,30.465
40,40,30.73,30.481
0,40,30.774,30.5
0,40,30.815,30.523
0,40,30.852,30.549
0,40,30.885,30.578
0,40,30.915,30.61
0,40,30.942,30.645
0,0,30.965,30.682
0,0,30.985,30.715
0,0,31.003,30.746
0,0,31.017,30.773
0,0,31.029,30.797
0,0,31.039,30.818
0,0,31.046,30.836
0,0,31.051,30.851
0,40,31.054,30.865
0,40,31.054,30.881
0,40,31.053,30.901
0,40,31.049,30.923
0,40,31.044,30.949
0,40,31.038,30.978
0,40,31.029,31.01
0,40,31.019,31.044
0,0,31.008,31.08
0,0,30.995,31.113
40,0,30.982,31.142
40,0,30.975,31.169
40,0,30.974,31.191
40,0,30.98,31.211
40,0,30.992,31.228
40,0,31.009,31.242
40,40,31.031,31.254
40,40,31.059,31.269
0,40,31.09,31.287
0,40,31.119,31.309
0,40,31.145,31.334
0,40,31.168,31.361
0,40,31.187,31.391
0,40,31.204,31.424
0,0,31.218,31.458
0,0,31.229,31.49
40,0,31.239,31.518
40,0,31.254,31.543
40,0,31.274,31.564
40,0,31.299,31.583
40,0,31.329,31.598
40,0,31.364,31.61
40,0,31.403,31.62
40,0,31.447,31.628
40,0,31.494,31.633
40,0,31.546,31.635
40,0,31.6,31.636
40,0,31.659,31.634
40,0,31.72,31.63
40,0,31.785,31.625
40,0,31.853,31.618
40,0,31.923,31.609
0,0,31.995,31.598
0,0,32.062,31.586
0,0,32.124,31.573
0,0,32.18,31.558
0,0,32.232,31.542
0,0,32.279,31.524
0,40,32.321,31.507
0,40,32.359,31.493
40,40,32.394,31.484
40,40,32.433,31.48
40,40,32.475,31.48
40,40,32.52,31.484
40,40,32.57,31.492
40,40,32.623,31.504
40,40,32.679,31.519
40,40,32.738,31.538
0,40,32.798,31.56
0,40,32.855,31.585
0,40,32.907,31.613
0,40,32.953,31.643
0,40,32.996,31.677
0,40,33.033,31.712
0,0,33.066,31.75
0,0,33.096,31.784
0,0,33.121,31.815
0,0,33.143,31.842
0,0,33.161,31.865
0,0,33.176,31.886
0,0,33.187,31.903
0,0,33.196,31.918
0,0,33.201,31.93
0,0,33.204,31.939
40,0,33.206,31.945
40,0,33.211,31.949
40,0,33.222,31.951
40,0,33.238,31.95
40,0,33.259,31.948
40,0,33.284,31.943
40,40,33.314,31.938
40,40,33.348,31.935
40,40,33.386,31.937
40,40,33.428,31.943
40,40,33.473,31.953
40,40,33.521,31.966
40,40,33.573,31.983
40,40,33.628,32.002
40,0,33.686,32.024
40,0,33.746,32.044
40,0,33.809,32.061
40,0,33.875,32.075
40,0,33.942,32.086
40,0,34.012,32.094
40,0,34.084,32.1
40,0,34.158,32.104
40,40,34.234,32.107
40,40,34.312,32.112
0,40,34.389,32.121
0,40,34.462,32.134
0,40,34.528,32.15
0,40,34.588,32.17
0,40,34.642,32.192
0,40,34.691,32.218
0,40,34.735,32.246
0,40,34.773,32.277
0,40,34.807,32.31
0,40,34.837,32.346
0,40,34.861,32.384
0,40,34.882,32.424
0,40,34.899,32.466
0,40,34.912,32.51
0,40,34.922,32.556
0,40,34.928,32.604
40,40,34.932,32.653
40,40,34.94,32.704
40,40,34.952,32.756
40,40,34.97,32.809
40,40,34.991,32.864
40,40,35.017,32.92
40,0,35.047,32.976
40,0,35.08,33.028
0,0,35.116,33.075
0,0,35.148,33.118
0,0,35.176,33.156
0,0,35.199,33.19
0,0,35.218,33.22
0,0,35.233,33.246
0,40,35.245,33.27
0,40,35.253,33.295
0,40,35.257,33.323
0,40,35.259,33.353
0,40,35.257,33.385
0,40,35.252,33.419
0,40,35.244,33.456
0,40,35.234,33.494
0,40,35.221,33.534
0,40,35.206,33.576
0,40,35.189,33.619
0,40,35.169,33.664
0,40,35.147,33.71
0,40,35.124,33.757
0,40,35.098,33.806
0,40,35.071,33.856
0,0,35.042,33.906
0,0,35.012,33.952
0,0,34.98,33.993
0,0,34.946,34.03
0,0,34.912,34.062
0,0,34.876,34.09
0,0,34.839,34.113
0,0,34.8,34.133
0,0,34.761,34.15
0,0,34.721,34.163
40,0,34.681,34.172
40,0,34.646,34.178
40,0,34.619,34.181
40,0,34.599,34.182
40,0,34.584,34.179
40,0,34.576,34.174
40,0,34.573,34.167
40,0,34.576,34.157
0,0,34.582,34.145
0,0,34.587,34.131
0,0,34.588,34.114
0,0,34.587,34.096
0,0,34.583,34.076
0,0,34.576,34.054
0,0,34.566,34.031
0,0,34.555,34.006
0,0,34.541,33.98
0,0,34.524,33.952
0,0,34.506,33.923
0,0,34.485,33.892
0,0,34.463,33.86
0,0,34.439,33.828
0,40,34.413,33.795
0,40,34.386,33.766
40,40,34.358,33.742
40,40,34.336,33.722
40,40,34.32,33.707
40,40,34.31,33.697
40,40,34.306,33.69
40,40,34.308,33.687
40,40,34.315,33.688
40,40,34.326,33.692
0,40,34.342,33.699
0,40,34.355,33.71
0,40,34.364,33.724
0,40,34.371,33.741
0,40,34.374,33.76
0,40,34.374,33.782
0,40,34.372,33.806
0,40,34.367,33.833
40,40,34.361,33.862
40,40,34.359,33.893
40,40,34.362,33.926
40,40,34.371,33.96
40,40,34.385,33.997
40,40,34.403,34.035
40,0,34.426,34.074
40,0,34.454,34.11
0,0,34.483,34.141
0,0,34.511,34.168
0,0,34.534,34.191
0,0,34.553,34.21
0,0,34.568,34.226
0,0,34.58,34.238
0,40,34.588,34.247
0,40,34.593,34.259
0,40,34.595,34.274
0,40,34.594,34.291
0,40,34.591,34.311
0,40,34.585,34.333
0,40,34.576,34.357
0,40,34.565,34.384
0,0,34.551,34.412
0,0,34.536,34.436
40,0,34.519,34.457
40,0,34.508,34.473
40,0,34.502,34.487
40,0,34.502,34.496
40,0,34.507,34.503
40,0,34.518,34.506
40,40,34.533,34.508
40,40,34.553,34.511
0,40,34.575,34.518
0,40,34.596,34.528
0,40,34.612,34.541
0,40,34.625,34.556
0,40,34.634,34.574
0,40,34.641,34.594
0,40,34.644,34.617
0,40,34.644,34.642
0,40,34.641,34.669
0,40,34.635,34.698
0,40,34.628,34.728
0,40,34.617,34.761
0,40,34.604,34.795
0,40,34.589,34.831
0,40,34.572,34.868
0,40,34.554,34.907
40,40,34.534,34.947
40,40,34.52,34.988
40,40,34.511,35.03
40,40,34.509,35.074
40,40,34.511,35.118
40,40,34.52,35.164
40,40,34.533,35.21
40,40,34.551,35.258
40,40,34.573,35.306
40,40,34.6,35.355
40,0,34.631,35.404
40,0,34.666,35.448
40,0,34.704,35.488
40,0,34.746,35.522
40,0,34.791,35.552
40,0,34.84,35.577
0,0,34.89,35.598
0,0,34.936,35.615
0,0,34.977,35.628
0,0,35.014,35.638
0,0,35.045,35.643
0,0,35.073,35.646
0,0,35.096,35.645
0,0,35.115,35.642
40,0,35.131,35.635
40,0,35.151,35.625
40,0,35.175,35.613
40,0,35.203,35.599
40,0,35.234,35.582
40,0,35.27,35.563
40,0,35.308,35.541
40,0,35.351,35.518
40,0,35.396,35.493
40,0,35.444,35.466
40,0,35.495,35.437
40,0,35.548,35.407
40,0,35.604,35.375
40,0,35.663,35.341
40,0,35.723,35.307
40,0,35.786,35.271
0,0,35.849,35.233
0,0,35.908,35.195
0,0,35.96,35.156
0,0,36.007,35.115
0,0,36.048,35.074
0,0,36.084,35.032
0,0,36.115,34.988
0,0,36.141,34.945
40,0,36.165,34.9
40,0,36.19,34.854
40,0,36.219,34.808
40,0,36.252,34.762
40,0,36.287,34.715
40,0,36.326,34.667
40,0,36.368,34.619
40,0,36.412,34.57
40,0,36.46,34.521
40,0,36.509,34.471
40,0,36.561,34.422
40,0,36.615,34.372
40,0,36.672,34.322
40,0,36.73,34.271
40,0,36.79,34.22
40,0,36.852,34.17
40,0,36.915,34.119
40,0,36.98,34.067
40,40,37.047,34.017
40,40,37.115,33.972
40,40,37.184,33.933
40,40,37.255,33.899
40,40,37.326,33.87
40,40,37.399,33.846
0,40,37.471,33.828
0,40,37.537,33.813
0,0,37.597,33.802
0,0,37.65,33.79
0,0,37.697,33.777
0,0,37.738,33.761
0,0,37.773,33.744
0,0,37.802,33.725
0,0,37.827,33.705
0,0,37.846,33.683
0,40,37.861,33.661
0,40,37.871,33.643
0,40,37.877,33.629
0,40,37.879,33.619
0,40,37.877,33.614
0,40,37.871,33.612
0,40,37.862,33.615
0,40,37.849,33.62
0,0,37.833,33.629
0,0,37.814,33.635
0,0,37.792,33.639
0,0,37.768,33.64
0,0,37.741,33.638
0,0,37.711,33.634
40,0,37.68,33.628
40,0,37.654,33.62
40,40,37.634,33.61
40,40,37.619,33.604
40,40,37.609,33.602
40,40,37.603,33.603
40,40,37.603,33.608
40,40,37.607,33.617
40,40,37.615,33.629
40,40,37.627,33.644
40,0,37.643,33.661
40,0,37.663,33.675
40,0,37.686,33.687
40,0,37.713,33.695
40,0,37.742,33.701
40,0,37.775,33.704
40,0,37.81,33.704
40,0,37.848,33.702
40,40,37.889,33.699
40,40,37.932,33.699
40,40,37.977,33.702
40,40,38.024,33.709
40,40,38.074,33.719
40,40,38.125,33.733
40,40,38.178,33.749
40,40,38.233,33.769
40,40,38.29,33.791
40,40,38.348,33.816
40,40,38.408,33.843
40,40,38.469,33.873
40,40,38.531,33.905
40,40,38.594,33.94
0,40,38.658,33.976
0,40,38.715,34.014
0,0,38.766,34.053
0,0,38.811,34.089
0,0,38.849,34.12
0,0,38.882,34.148
0,0,38.909,34.172
0,0,38.93,34.192
40,0,38.948,34.209
40,0,38.968,34.222
40,0,38.991,34.232
40,0,39.017,34.239
40,0,39.045,34.244
40,0,39.076,34.245
40,0,39.11,34.244
40,0,39.146,34.241
0,0,39.184,34.235
0,0,39.216,34.227
0,40,39.243,34.218
0,40,39.264,34.212
0,40,39.28,34.209
0,40,39.292,34.211
0,40,39.298,34.216
0,40,39.3,34.224
0,40,39.298,34.236
0,40,39.291,34.25
0,40,39.281,34.267
0,40,39.267,34.288
0,40,39.25,34.31
0,40,39.229,34.335
0,40,39.205,34.363
0,40,39.179,34.392
0,40,39.149,34.424
0,40,39.117,34.458
0,0,39.082,34.492
0,0,39.044,34.523
0,0,39.005,34.55
0,0,38.963,34.573
0,0,38.919,34.593
0,0,38.873,34.608
0,0,38.825,34.621
0,0,38.776,34.63
0,0,38.725,34.635
0,0,38.672,34.638
0,0,38.618,34.638
0,0,38.562,34.635
0,0,38.505,34.63
0,0,38.447,34.622
0,0,38.388,34.612
0,0,38.327,34.599
0,0,38.266,34.585
0,0,38.204,34.568
0,0,38.14,34.549
0,0,38.076,34.529
0,0,38.011,34.507
0,0,37.945,34.483
40,0,37.88,34.457
40,0,37.821,34.43
40,40,37.769,34.403
40,40,37.724,34.379
40,40,37.686,34.36
40,40,37.654,34.345
40,40,37.627,34.334
40,40,37.607,34.328
40,40,37.591,34.325
40,40,37.581,34.325
40,0,37.576,34.328
40,0,37.576,34.33
40,0,37.58,34.328
40,0,37.588,34.324
40,0,37.6,34.318
40,0,37.616,34.309
0,0,37.635,34.298
0,0,37.65,34.285
0,0,37.661,34.27
0,0,37.667,34.253
0,0,37.67,34.234
0,0,37.668,34.214
0,0,37.663,34.192
0,0,37.654,34.168
40,0,37.644,34.143
40,0,37.637,34.117
40,0,37.635,34.089
40,0,37.637,34.06
40,0,37.643,34.03
40,0,37.654,33.999
40,0,37.668,33.966
40,0,37.686,33.933
0,0,37.707,33.899
0,0,37.723,33.864
0,40,37.736,33.829
0,40,37.744,33.798
0,40,37.747,33.773
0,40,37.747,33.752
0,40,37.743,33.736
0,40,37.736,33.724
40,40,37.726,33.717
40,40,37.72,33.713
40,0,37.718,33.713
40,0,37.721,33.711
40,0,37.728,33.706
40,0,37.74,33.7
40,0,37.755,33.691
40,0,37.773,33.68
0,0,37.794,33.667
0,0,37.812,33.653
0,40,37.824,33.638
0,40,37.833,33.626
0,40,37.837,33.618
0,40,37.837,33.615
0,40,37.833,33.615
0,40,37.826,33.619
0,40,37.815,33.626
0,40,37.801,33.637
0,40,37.784,33.651
0,40,37.764,33.668
0,40,37.741,33.688
0,40,37.716,33.71
0,40,37.688,33.735
0,40,37.657,33.763
0,40,37.624,33.792
0,40,37.59,33.824
0,0,37.553,33.857
0,0,37.514,33.887
0,0,37.473,33.913
0,0,37.431,33.935
0,0,37.387,33.953
0,0,37.341,33.968
40,0,37.296,33.98
40,0,37.256,33.989
40,40,37.222,33.995
40,40,37.194,34.004
40,40,37.172,34.016
40,40,37.156,34.031
40,40,37.145,34.048
40,40,37.139,34.069
40,40,37.138,34.092
40,40,37.142,34.117
40,0,37.15,34.144
40,0,37.163,34.167
40,0,37.179,34.187
40,0,37.199,34.204
40,0,37.223,34.217
40,0,37.25,34.227
0,0,37.279,34.234
0,0,37.304,34.238
0,0,37.325,34.239
0,0,37.34,34.237
0,0,37.352,34.233
0,0,37.359,34.227
0,0,37.363,34.218
0,0,37.362,34.207
0,0,37.358,34.194
0,0,37.351,34.179
0,40,37.34,34.163
0,40,37.326,34.151
0,40,37.309,34.142
0,40,37.289,34.137
0,40,37.267,34.136
0,40,37.242,34.139
40,40,37.216,34.145
40,40,37.194,34.154
40,40,37.178,34.166
40,40,37.168,34.181
40,40,37.162,34.199
40,40,37.161,34.22
40,40,37.165,34.243
40,40,37.173,34.268
0,40,37.185,34.296
0,40,37.193,34.326
0,40,37.197,34.357
0,40,37.198,34.391
0,40,37.195,34.427
0,40,37.189,34.464
0,40,37.179,34.503
0,40,37.166,34.544
40,40,37.152,34.586
40,40,37.142,34.629
40,0,37.137,34.673
40,0,37.136,34.712
40,0,37.141,34.747
40,0,37.15,34.778
40,0,37.162,34.805
40,0,37.179,34.827
40,0,37.2,34.846
40,0,37.224,34.861
40,0,37.252,34.872
40,0,37.283,34.88
40,0,37.317,34.885
40,0,37.354,34.887
40,0,37.394,34.886
40,0,37.437,34.883
40,0,37.481,34.877
40,0,37.529,34.868
40,40,37.578,34.858
40,40,37.63,34.851
40,40,37.683,34.848
40,40,37.739,34.848
40,40,37.796,34.851
40,40,37.855,34.858
0,40,37.914,34.868
0,40,37.968,34.88
0,0,38.015,34.895
0,0,38.057,34.907
0,0,38.093,34.916
0,0,38.123,34.921
0,0,38.148,34.924
0,0,38.168,34.924
40,0,38.185,34.92
40,0,38.203,34.915
40,0,38.226,34.907
40,0,38.251,34.896
40,0,38.279,34.883
40,0,38.311,34.868
40,0,38.345,34.851
40,0,38.381,34.833
40,0,38.421,34.812
40,0,38.462,34.79
40,0,38.506,34.766
40,0,38.552,34.74
40,0,38.599,34.713
40,0,38.649,34.685
40,0,38.7,34.655
40,0,38.753,34.624
0,0,38.807,34.592
0,0,38.855,34.559
0,0,38.896,34.525
0,0,38.932,34.49
0,0,38.962,34.454
0,0,38.986,34.417
0,0,39.005,34.379
0,0,39.019,34.341
0,0,39.028,34.301
0,0,39.033,34.262
0,40,39.033,34.222
0,40,39.029,34.187
0,40,39.021,34.157
0,40,39.009,34.132
0,40,38.994,34.112
0,40,38.975,34.096
0,40,38.954,34.085
0,40,38.929,34.078
0,0,38.901,34.073
0,0,38.87,34.068
0,0,38.837,34.06
0,0,38.801,34.05
0,0,38.763,34.037
0,0,38.723,34.023
0,0,38.68,34.007
0,0,38.636,33.989
0,0,38.589,33.97
0,0,38.541,33.949
0,0,38.491,33.926
0,0,38.44,33.902
0,0,38.387,33.877
0,0,38.332,33.85
40,0,38.278,33.822
40,0,38.229,33.793
40,40,38.186,33.764
40,40,38.15,33.738
40,40,38.12,33.718
40,40,38.095,33.702
40,40,38.076,33.691
40,40,38.062,33.683
40,40,38.053,33.68
40,40,38.048,33.681
40,0,38.048,33.684
40,0,38.053,33.685
40,0,38.061,33.685
40,0,38.074,33.681
40,0,38.09,33.676
40,0,38.109,33.668
40,0,38.132,33.658
40,0,38.158,33.647
40,40,38.187,33.634
40,40,38.219,33.625
40,40,38.253,33.62
40,40,38.291,33.619
40,40,38.33,33.622
40,40,38.372,33.628
0,40,38.415,33.638
0,40,38.453,33.651
0,0,38.485,33.666
0,0,38.512,33.679
0,0,38.534,33.689
0,0,38.55,33.697
0,0,38.562,33.701
0,0,38.569,33.703
40,0,38.574,33.702
40,0,38.58,33.699
40,0,38.591,33.694
40,0,38.605,33.686
40,0,38.623,33.677
40,0,38.644,33.665
40,0,38.668,33.652
40,0,38.695,33.637
0,0,38.724,33.621
0,0,38.748,33.602
0,40,38.767,33.584
0,40,38.781,33.569
0,40,38.791,33.558
0,40,38.796,33.552
0,40,38.796,33.549
0,40,38.793,33.551
40,40,38.787,33.556
40,40,38.784,33.565
40,0,38.785,33.576
40,0,38.79,33.585
40,0,38.799,33.591
40,0,38.812,33.595
40,0,38.828,33.596
40,0,38.847,33.595
40,0,38.87,33.591
40,0,38.896,33.585
40,0,38.924,33.577
40,0,38.955,33.567
40,0,38.988,33.556
40,0,39.024,33.542
40,0,39.063,33.527
40,0,39.103,33.511
40,0,39.145,33.492
40,0,39.19,33.473
40,40,39.236,33.453
40,40,39.284,33.437
40,40,39.333,33.425
40,40,39.384,33.418
40,40,39.437,33.415
40,40,39.491,33.416
40,40,39.546,33.421
40,40,39.603,33.429
40,40,39.66,33.441
40,40,39.719,33.456
