0,0,24.291,23.803
0,0,24.291,23.803
0,0,24.291,23.803
0,0,24.291,23.803
0,0,24.291,23.803
0,0,24.291,23.803
0,0,24.291,23.803
0,0,24.291,23.803
0,0,24.291,23.803
0,0,24.291,23.803
0,0,24.291,23.803
0,0,24.291,23.803
0,0,24.291,23.803
0,0,24.291,23.803
0,0,24.291,23.803
0,0,24.291,23.803
0,0,24.291,23.803
0,0,24.291,23.803
0,0,24.291,23.803
0,0,24.291,23.803
0,0,23.803,23.803
0,0,24.291,23.803
0,0,24.291,23.803
0,0,24.291,23.803
0,0,24.291,23.803
0,0,24.291,23.803
0,0,24.291,23.803
0,0,24.291,23.803
0,0,24.291,23.803
0,0,24.291,23.803
0,0,24.291,23.803
0,0,24.291,23.803
0,0,24.291,24.291
0,0,24.291,23.803
0,0,24.291,23.803
0,0,24.291,23.803
0,0,24.291,23.803
0,0,24.291,24.291
0,0,24.291,23.803
0,0,24.291,23.803
0,0,24.291,23.803
0,0,24.291,23.803
0,0,24.291,23.803
0,0,24.291,23.803
0,0,24.291,23.803
0,0,24.291,23.803
0,0,24.291,23.803
0,0,24.291,23.803
0,0,24.291,23.803
0,0,24.291,23.803
0,0,24.291,23.803
0,0,24.291,23.803
0,0,24.291,23.803
0,0,24.291,23.803
0,0,24.291,23.803
0,0,24.291,23.803
0,0,24.291,23.803
0,0,24.291,23.803
0,0,24.291,23.803
0,0,24.291,23.803
0,0,24.291,23.803
0,0,24.291,23.803
0,0,24.291,23.803
0,0,24.291,23.803
0,0,24.291,24.291
0,0,24.291,23.803
0,0,24.291,23.803
0,0,24.291,23.803
0,0,24.291,23.803
0,0,24.291,23.803
0,0,24.291,23.803
0,0,24.291,23.803
0,0,24.291,23.803
0,0,24.291,23.803
0,0,24.291,23.803
0,0,24.291,23.803
0,0,24.291,23.803
0,0,24.291,23.803
0,0,24.291,23.803
0,0,24.291,23.803
0,0,24.291,23.803
0,0,24.291,23.803
0,0,24.291,23.803
0,0,24.291,23.803
0,0,24.291,23.803
0,0,24.291,23.803
0,0,24.291,23.803
0,0,24.291,23.803
0,0,24.291,23.803
0,0,24.291,23.803
0,0,24.291,23.803
0,0,24.291,23.803
0,0,24.291,23.803
0,0,24.291,23.803
0,0,24.291,23.803
0,0,24.291,23.803
0,0,24.291,23.803
0,0,24.291,23.803
0,0,24.291,23.803
20,20,24.78,24.78
20,20,24.291,25.269
20,20,24.291,23.803
20,20,24.291,23.803
20,20,24.291,23.803
20,20,24.291,23.803
20,20,24.291,23.803
20,20,24.78,23.803
20,20,23.803,24.78
20,20,24.291,24.291
20,20,24.291,24.291
20,20,24.291,23.803
20,20,24.291,23.314
20,20,24.291,24.78
20,20,24.291,23.803
20,20,24.291,24.291
20,20,25.269,24.291
20,20,24.291,24.291
20,20,24.291,25.269
20,20,24.291,23.803
20,20,24.78,24.291
20,20,24.78,25.269
20,20,24.78,25.269
20,20,24.78,24.291
20,20,25.269,24.291
20,20,24.78,24.291
20,20,25.269,24.78
20,20,24.78,24.78
20,20,24.78,24.78
20,20,25.269,24.291
20,20,25.269,24.78
20,20,25.269,24.78
20,20,25.269,25.758
20,20,25.269,25.269
20,20,25.269,24.78
20,20,25.269,25.269
20,20,25.758,24.78
20,20,25.758,26.246
20,20,25.758,24.78
20,20,26.246,25.269
20,20,26.246,25.269
20,20,26.246,25.758
20,20,25.758,26.735
20,20,25.758,26.735
20,20,25.758,25.758
20,20,25.758,25.758
20,20,26.246,25.758
20,20,26.246,25.758
20,20,26.246,25.758
20,20,26.735,27.224
20,20,26.735,26.246
20,20,26.735,26.246
20,20,26.246,26.246
20,20,27.224,26.246
20,20,27.713,26.735
20,20,27.713,26.246
20,20,27.224,26.735
20,20,27.224,27.713
20,20,27.224,26.735
20,20,27.713,26.735
20,20,27.224,27.224
20,20,27.224,28.201
20,20,27.713,27.224
20,20,27.224,27.224
20,20,27.713,28.69
20,20,27.713,27.224
20,20,28.201,27.224
20,20,27.713,27.713
20,20,28.201,27.713
20,20,28.201,27.713
20,20,27.713,28.69
20,20,28.69,27.713
20,20,28.201,27.713
20,20,28.201,27.713
20,20,28.201,27.713
20,20,28.69,28.201
20,20,28.69,28.201
20,20,28.69,29.668
20,20,28.69,28.201
20,20,28.69,29.179
20,20,28.69,28.201
20,20,29.179,29.668
20,20,29.179,28.69
20,20,29.179,28.69
20,20,29.668,28.69
20,20,29.668,29.179
20,20,29.668,29.179
20,20,29.179,29.179
20,20,29.668,29.179
20,20,29.668,29.668
20,20,29.668,29.668
20,20,30.156,30.645
20,20,30.156,30.645
20,20,30.156,29.668
20,20,30.156,31.134
20,20,30.156,30.156
20,20,30.645,29.668
20,20,30.156,29.668
20,20,30.645,29.668
20,20,30.645,30.156
20,20,30.156,30.156
20,20,30.645,31.623
20,20,30.645,30.156
20,20,30.645,31.134
20,20,30.645,30.645
20,20,31.134,30.645
20,20,31.134,30.645
20,20,31.134,30.645
20,20,31.623,31.134
20,20,31.134,31.134
20,20,31.623,30.645
20,20,31.623,31.134
20,20,31.623,31.134
20,20,31.623,31.134
20,20,31.623,32.111
20,20,32.111,31.134
20,20,32.111,31.623
20,20,32.111,32.6
20,20,32.111,31.623
20,20,32.6,32.111
20,20,32.111,31.623
20,20,32.6,31.623
20,20,33.089,32.111
20,20,32.6,33.578
20,20,32.6,32.111
20,20,32.6,32.111
20,20,32.6,32.111
20,20,32.6,32.111
20,20,32.6,32.111
20,20,32.6,32.111
20,20,33.578,32.111
20,20,33.578,32.6
20,20,33.089,33.578
20,20,33.089,32.6
20,20,33.578,33.089
20,20,33.089,34.555
20,20,33.578,32.6
20,20,34.066,33.089
20,20,33.578,33.089
20,20,33.578,33.089
20,20,33.578,33.089
20,20,33.578,33.089
20,20,34.066,33.089
20,20,33.578,35.044
20,20,34.066,33.578
20,20,34.555,33.578
20,20,34.066,33.578
20,20,34.066,33.089
20,20,34.555,33.578
20,20,34.555,33.089
20,20,34.555,34.555
20,20,34.066,33.578
20,20,34.066,33.089
20,20,34.555,34.066
20,20,34.555,34.066
20,20,34.555,34.066
20,20,34.555,34.555
20,20,35.044,35.044
20,20,34.555,34.066
20,20,35.533,34.066
20,20,35.044,34.066
20,20,35.044,34.066
20,20,35.044,34.555
20,20,35.533,34.555
20,20,35.044,34.555
20,20,35.533,34.555
20,20,35.533,34.555
20,20,35.533,35.044
20,20,36.022,35.044
20,20,35.533,35.044
20,20,35.533,36.022
20,20,36.022,35.044
20,20,36.022,35.044
20,20,36.022,35.533
20,20,36.022,36.022
20,20,36.51,35.044
20,20,36.022,35.533
20,20,36.022,35.533
20,20,36.022,35.533
20,20,36.022,36.022
20,20,36.51,35.533
20,20,36.022,36.51
20,20,36.51,36.022
20,20,36.51,35.533
20,20,36.51,35.533
20,20,36.51,37.488
20,20,36.51,36.999
20,20,36.51,36.51
20,20,36.51,37.488
20,20,36.51,36.022
20,20,36.999,36.022
20,20,36.51,36.022
20,20,36.999,36.022
20,20,36.999,36.022
20,20,36.999,37.488
20,20,36.999,37.488
20,20,37.488,37.488
20,20,36.999,36.022
20,20,36.999,36.022
20,20,36.999,36.51
40,40,36.999,36.51
40,40,37.488,37.977
40,40,36.999,37.977
40,40,37.488,37.977
40,40,37.488,36.51
40,40,38.465,38.465
40,40,37.977,38.465
40,40,37.488,36.999
40,40,36.999,37.977
40,40,37.977,36.999
40,40,37.977,37.977
40,40,38.465,36.999
40,40,37.977,38.954
40,40,37.977,37.488
40,40,37.977,37.488
40,40,38.465,37.977
40,40,38.465,38.465
40,40,38.465,38.465
40,40,38.465,39.443
40,40,38.954,37.488
40,40,38.954,38.954
40,40,38.954,37.977
40,40,38.465,37.977
40,40,39.443,37.977
40,40,38.954,37.977
40,40,39.443,38.465
40,40,39.443,38.465
40,40,39.443,38.465
40,40,39.443,38.954
40,40,39.443,39.932
40,40,39.932,40.42
40,40,39.932,37.977
40,40,39.932,38.954
40,40,39.932,39.443
40,40,40.42,40.42
40,40,40.909,40.909
40,40,39.932,39.443
40,40,40.42,40.909
40,40,39.932,39.443
40,40,40.909,39.932
40,40,40.42,39.932
40,40,40.42,41.398
40,40,40.909,41.887
40,40,40.909,40.42
40,40,40.909,40.42
40,40,41.398,41.398
40,40,40.909,41.398
40,40,41.887,41.887
40,40,41.398,41.398
40,40,42.375,40.909
40,40,41.887,41.887
40,40,42.375,42.375
40,40,41.887,41.398
40,40,42.375,40.909
40,40,41.887,41.398
40,40,42.864,41.887
40,40,43.353,42.375
40,40,42.864,42.864
40,40,42.864,42.864
40,40,42.864,42.864
40,40,43.353,41.887
40,40,43.842,41.887
40,40,43.842,42.375
40,40,43.353,43.842
40,40,43.353,43.842
40,40,42.864,41.887
40,40,43.353,41.887
40,40,43.353,42.375
40,40,43.842,43.842
40,40,43.842,42.375
40,40,43.842,42.375
40,40,43.842,44.819
40,40,44.819,42.375
40,40,44.819,44.33
40,40,44.819,43.353
40,40,45.308,44.819
40,40,44.819,43.353
40,40,44.819,43.842
40,40,45.308,43.842
40,40,45.308,45.308
40,40,44.819,43.842
40,40,44.819,43.842
40,40,45.308,45.308
40,40,44.819,43.842
40,40,45.797,45.308
40,40,45.308,43.842
40,40,45.797,44.819
40,40,45.797,44.33
40,40,46.285,44.33
40,40,45.797,45.797
40,40,46.285,44.819
40,40,46.285,44.819
40,40,46.285,46.285
40,40,46.285,45.308
40,40,46.774,46.774
40,40,46.285,45.308
40,40,46.774,46.774
40,40,46.774,45.797
40,40,47.263,47.263
40,40,46.774,45.797
40,40,47.263,47.263
40,40,47.752,45.797
40,40,47.263,46.285
40,40,47.752,46.774
40,40,47.752,46.285
40,40,47.752,45.797
40,40,47.752,46.774
40,40,47.752,46.774
40,40,47.752,48.24
40,40,48.24,46.774
40,40,48.24,48.729
40,40,48.729,47.263
40,40,48.729,47.263
40,40,48.729,47.263
40,40,48.729,49.218
40,40,48.729,47.263
40,40,49.218,48.729
40,40,49.218,46.774
40,40,49.218,48.729
40,40,49.707,49.218
40,40,49.707,49.218
40,40,49.707,49.218
40,40,49.218,49.218
40,40,49.218,47.752
40,40,49.707,48.24
40,40,49.707,48.24
40,40,50.684,49.707
40,40,50.684,50.196
40,40,50.196,50.196
40,40,50.684,48.729
40,40,50.196,50.684
40,40,50.196,49.218
40,40,50.684,48.729
40,40,50.684,50.196
40,40,50.684,49.218
40,40,50.196,49.218
40,40,50.684,49.707
40,40,50.684,50.684
40,40,50.684,51.173
40,40,51.173,50.684
40,40,50.684,49.707
40,40,51.173,52.151
40,40,51.662,50.684
40,40,51.173,49.707
40,40,51.173,49.707
40,40,51.173,50.684
40,40,51.662,50.196
40,40,51.662,52.151
40,40,52.151,50.196
40,40,51.662,50.684
40,40,52.151,51.662
40,40,51.662,50.684
40,40,52.151,50.684
40,40,52.639,50.196
40,40,52.151,50.684
40,40,52.151,50.196
40,40,51.662,52.639
40,40,52.639,52.639
40,40,52.639,52.639
40,40,53.128,50.684
40,40,52.639,52.639
40,40,52.639,51.173
40,40,52.639,51.173
40,40,53.128,52.639
40,40,52.639,53.128
40,40,53.617,53.128
40,40,53.128,52.151
40,40,53.617,51.662
40,40,53.617,53.617
40,40,53.128,51.662
40,40,54.594,53.617
40,40,54.106,51.662
40,40,54.594,52.151
40,40,54.594,53.617
40,40,53.617,52.639
40,40,54.106,53.617
40,40,54.106,52.639
40,40,53.617,54.106
40,40,54.594,52.151
40,40,54.106,52.639
40,40,54.106,52.151
40,40,54.106,52.639
40,40,54.594,54.106
40,40,54.594,54.106
40,40,55.083,52.639
40,40,55.083,54.106
40,40,54.594,54.594
40,40,55.083,53.128
40,40,54.594,53.617
40,40,55.572,55.083
40,40,54.594,53.617
40,40,55.572,55.083
40,40,56.061,55.083
40,40,55.083,53.617
40,40,55.572,54.594
40,40,55.572,54.106
40,40,56.061,54.594
40,40,56.061,56.549
40,40,56.061,54.594
40,40,55.572,56.061
20,20,56.061,54.594
20,20,56.061,56.061
20,20,56.549,54.106
20,20,55.572,56.061
20,20,56.061,54.106
20,20,56.061,54.594
20,20,56.549,56.549
20,20,56.061,54.594
20,20,56.061,54.594
20,20,57.038,54.594
20,20,57.038,54.594
20,20,57.038,54.594
20,20,56.549,55.083
20,20,56.549,55.083
20,20,57.038,55.083
20,20,56.549,55.083
20,20,56.549,55.083
20,20,57.527,55.083
20,20,57.038,55.572
20,20,56.549,55.083
20,20,56.549,55.572
20,20,57.038,55.083
20,20,57.038,55.572
20,20,57.038,55.572
20,20,57.527,55.572
20,20,57.038,55.572
20,20,56.549,55.083
20,20,56.549,55.572
20,20,57.038,56.061
20,20,57.038,55.572
20,20,57.527,55.572
20,20,57.527,55.572
20,20,56.549,56.061
20,20,57.038,55.572
20,20,57.038,55.572
20,20,57.038,55.572
20,20,57.038,55.572
20,20,56.549,55.572
20,20,57.038,56.061
20,20,57.038,57.038
20,20,57.038,57.038
20,20,57.038,55.572
20,20,57.038,58.016
20,20,57.038,55.572
20,20,57.038,55.572
20,20,57.038,55.572
20,20,58.016,55.572
20,20,57.038,55.572
20,20,57.038,55.572
20,20,57.038,56.061
20,20,57.038,57.038
20,20,57.038,55.572
20,20,57.038,55.572
20,20,56.549,56.061
20,20,56.549,55.572
20,20,57.038,55.572
20,20,56.549,55.572
20,20,56.549,55.083
20,20,57.038,55.083
20,20,56.549,57.527
20,20,56.549,55.572
20,20,57.038,56.549
20,20,56.549,57.038
20,20,56.549,55.083
20,20,56.549,55.083
20,20,56.061,57.038
20,20,56.061,57.038
20,20,56.549,55.572
20,20,57.038,55.083
20,20,57.038,55.083
20,20,56.549,55.083
20,20,56.549,57.038
20,20,56.549,55.083
20,20,56.549,56.549
20,20,56.061,55.083
20,20,56.549,55.083
20,20,56.061,55.083
20,20,56.549,55.083
20,20,56.549,54.594
20,20,56.549,55.572
20,20,55.572,54.594
20,20,56.061,54.594
20,20,56.061,54.594
20,20,56.061,55.083
20,20,56.061,55.083
20,20,56.061,54.594
20,20,56.061,56.549
20,20,56.061,54.594
20,20,56.061,54.106
20,20,55.572,54.106
20,20,56.549,54.594
20,20,55.572,55.083
20,20,55.083,54.594
20,20,55.572,54.594
20,20,56.061,54.106
20,20,56.061,54.106
20,20,55.083,54.594
20,20,55.083,54.594
20,20,55.083,54.106
20,20,55.572,54.594
20,20,55.083,54.106
20,20,55.083,53.617
20,20,54.594,53.617
20,20,55.083,54.106
20,20,55.083,54.106
20,20,54.594,53.617
20,20,54.594,53.617
20,20,54.594,54.106
20,20,54.594,53.617
20,20,54.594,53.128
20,20,54.594,55.083
20,20,54.594,53.617
20,20,54.594,55.083
20,20,54.106,52.639
20,20,54.106,53.128
20,20,54.106,53.128
20,20,54.106,53.128
20,20,54.594,53.128
20,20,54.106,53.128
20,20,53.617,53.128
20,20,54.106,53.128
20,20,54.106,52.639
20,20,54.106,52.639
20,20,54.106,52.151
20,20,54.106,52.639
20,20,54.594,52.639
20,20,54.594,52.151
20,20,53.617,52.639
20,20,54.106,52.151
20,20,53.617,52.151
20,20,54.594,52.151
20,20,53.617,52.639
20,20,53.617,53.617
20,20,54.106,52.151
20,20,53.617,52.151
20,20,53.617,52.151
20,20,53.617,52.151
20,20,53.617,53.617
20,20,53.617,53.617
20,20,53.617,51.662
20,20,53.128,51.662
20,20,53.128,53.617
20,20,54.106,52.151
20,20,53.617,51.662
20,20,53.617,53.128
20,20,53.617,51.662
20,20,53.617,51.662
20,20,53.617,53.617
20,20,53.128,52.151
20,20,53.128,51.173
20,20,53.128,52.151
20,20,52.639,51.173
20,20,52.639,51.173
20,20,53.128,51.662
20,20,53.128,53.128
20,20,52.639,51.173
20,20,53.617,51.173
20,20,53.128,51.173
20,20,52.639,51.173
20,20,53.128,52.639
20,20,52.639,50.684
20,20,53.128,51.662
20,20,52.639,51.173
20,20,52.639,51.173
20,20,53.617,52.639
20,20,52.639,51.173
20,20,52.639,52.639
20,20,52.639,51.173
20,20,53.128,51.173
20,20,52.639,50.684
20,20,52.639,50.684
20,20,53.128,50.684
20,20,52.639,50.684
20,20,52.151,50.684
20,20,52.639,50.684
20,20,52.151,50.684
20,20,52.151,50.684
20,20,52.151,52.151
20,20,52.151,50.684
20,20,52.151,50.684
20,20,52.151,51.173
20,20,52.639,50.196
20,20,52.151,50.684
20,20,52.639,50.684
20,20,52.639,50.196
20,20,51.662,50.684
20,20,52.639,52.151
20,20,51.662,50.684
20,20,52.151,51.662
20,20,51.662,50.196
20,20,51.662,51.662
20,20,51.662,50.196
20,20,52.151,49.707
20,20,51.662,50.196
20,20,52.151,49.707
20,20,51.662,50.196
20,20,52.151,49.707
20,20,52.151,49.707
20,20,52.151,50.196
20,20,51.662,51.173
0,0,51.662,50.196
0,0,51.662,49.707
0,0,51.173,49.707
0,0,51.662,49.707
0,0,51.662,49.707
0,0,51.662,49.707
0,0,51.662,50.196
0,0,51.662,49.707
0,0,51.173,49.707
0,0,51.662,49.707
0,0,51.173,50.196
0,0,51.662,49.707
0,0,51.173,49.707
0,0,51.173,49.707
0,0,51.173,49.707
0,0,50.684,49.707
0,0,51.173,49.218
0,0,51.173,49.218
0,0,50.684,49.218
0,0,51.173,48.729
0,0,51.173,49.218
0,0,50.684,49.218
0,0,50.684,49.218
0,0,50.684,49.218
0,0,50.684,48.729
0,0,50.684,49.218
0,0,50.196,48.729
0,0,49.707,48.729
0,0,50.196,48.729
0,0,50.196,48.729
0,0,50.196,49.218
0,0,49.707,48.729
0,0,50.196,48.24
0,0,50.196,48.24
0,0,49.707,48.729
0,0,49.707,48.24
0,0,49.707,48.24
0,0,49.707,48.24
0,0,49.218,48.24
0,0,49.707,47.752
0,0,49.707,47.752
0,0,49.218,48.24
0,0,49.218,48.24
0,0,49.218,47.752
0,0,49.218,47.752
0,0,49.218,47.752
0,0,49.218,48.24
0,0,48.729,47.752
0,0,48.729,47.752
0,0,48.729,47.263
0,0,48.729,47.263
0,0,48.729,47.263
0,0,48.24,47.263
0,0,48.729,47.752
0,0,48.24,47.263
0,0,48.24,46.774
0,0,48.24,47.263
0,0,48.24,46.774
0,0,47.752,46.285
0,0,47.752,46.285
0,0,47.263,46.774
0,0,47.752,46.285
0,0,47.263,45.797
0,0,47.263,46.285
0,0,47.263,46.285
0,0,47.263,45.797
0,0,46.774,45.797
0,0,47.263,45.797
0,0,46.774,45.797
0,0,46.774,45.797
0,0,46.774,45.308
0,0,46.774,45.797
0,0,46.285,45.308
0,0,46.774,45.308
0,0,46.285,45.308
0,0,46.285,45.308
0,0,46.285,45.308
0,0,45.797,44.819
0,0,46.285,44.819
0,0,45.797,44.819
0,0,45.797,44.819
0,0,45.797,44.819
0,0,45.797,44.819
0,0,45.308,44.33
0,0,45.308,44.33
0,0,45.308,44.33
0,0,45.308,44.33
0,0,44.819,43.842
0,0,44.819,43.842
0,0,44.819,43.842
0,0,44.819,43.842
0,0,44.819,43.842
0,0,44.819,43.842
0,0,44.33,43.353
0,0,44.819,43.353
0,0,44.33,43.353
0,0,44.33,42.864
0,0,43.842,42.864
0,0,44.33,42.864
0,0,43.842,43.353
0,0,43.842,42.864
0,0,43.842,42.375
0,0,43.842,42.375
0,0,43.842,42.375
0,0,43.842,42.375
0,0,43.842,42.864
0,0,43.353,42.375
0,0,43.353,42.375
0,0,43.353,42.375
0,0,43.353,42.375
0,0,42.864,41.887
0,0,43.353,41.887
0,0,43.353,41.398
0,0,42.864,41.887
0,0,42.864,41.887
0,0,42.864,41.887
0,0,42.375,41.398
0,0,42.375,41.398
0,0,42.375,41.398
0,0,42.375,41.398
0,0,42.375,41.398
0,0,42.375,40.42
0,0,41.887,41.398
0,0,41.887,41.398
0,0,41.887,41.398
0,0,41.887,40.909
0,0,41.887,40.909
0,0,41.887,40.909
0,0,41.887,40.909
0,0,41.887,40.909
0,0,41.887,40.909
0,0,41.398,40.42
0,0,41.398,40.42
0,0,41.398,40.42
0,0,41.398,40.42
0,0,41.398,40.42
0,0,40.909,39.932
0,0,40.909,39.932
0,0,40.909,39.932
0,0,40.909,39.932
0,0,40.42,39.932
0,0,40.42,39.443
0,0,40.42,39.443
0,0,40.42,39.932
0,0,40.42,39.443
0,0,40.42,39.443
0,0,39.932,39.443
0,0,39.932,38.954
0,0,39.932,38.954
0,0,39.932,39.443
0,0,39.932,39.443
0,0,39.932,39.443
0,0,39.932,38.954
0,0,39.932,38.954
0,0,39.932,38.954
0,0,39.443,38.954
0,0,39.443,38.954
0,0,39.443,38.465
0,0,39.443,38.465
0,0,39.443,38.465
0,0,38.954,38.465
0,0,38.954,38.465
0,0,38.954,38.465
0,0,38.954,37.977
0,0,38.954,37.977
0,0,38.954,37.977
0,0,38.465,37.977
0,0,38.954,37.977
0,0,38.465,37.977
0,0,38.465,37.488
0,0,38.465,37.977
0,0,38.465,36.999
0,0,38.465,37.488
0,0,38.465,37.488
0,0,38.465,37.488
0,0,38.465,36.999
0,0,38.465,37.488
0,0,37.977,37.488
0,0,37.977,37.488
0,0,37.977,36.999
0,0,38.465,36.999
0,0,37.977,36.51
0,0,37.488,36.999
0,0,37.977,36.999
0,0,37.977,36.999
0,0,37.488,36.51
0,0,37.488,36.51
0,0,37.488,36.51
0,0,37.488,36.51
0,0,37.488,36.51
0,0,37.488,36.51
0,0,36.999,36.51
0,0,36.999,36.51
0,0,36.999,36.022
0,0,36.999,36.022
0,0,36.999,36.022
0,0,36.999,36.022
0,0,36.999,36.51
0,0,36.022,35.044
0,0,36.022,35.044
0,0,36.022,35.533
